<?xml version="1.0" encoding="utf-8"?>
<!-- Generator: Adobe Illustrator 22.0.0, SVG Export Plug-In . SVG Version: 6.00 Build 0)  -->
<svg version="1.1" id="Capa_1" xmlns="http://www.w3.org/2000/svg" xmlns:xlink="http://www.w3.org/1999/xlink" x="0px" y="0px"
	 viewBox="0 0 404.7 177.4" style="enable-background:new 0 0 404.7 177.4;" xml:space="preserve">
<style type="text/css">
	.st0{fill:#720F17;}
	.st1{fill:#730F17;}
	.st2{fill:#740F17;}
	.st3{fill:#750F18;}
	.st4{fill:#760F18;}
	.st5{fill:#771018;}
	.st6{fill:#781018;}
	.st7{fill:#791018;}
	.st8{fill:#7A1019;}
	.st9{fill:#7B1019;}
	.st10{fill:#7C1019;}
	.st11{fill:#7D1019;}
	.st12{fill:#7E1019;}
	.st13{fill:#7F111A;}
	.st14{fill:#80111A;}
	.st15{fill:#81111A;}
	.st16{fill:#82111A;}
	.st17{fill:#83111A;}
	.st18{fill:#84111B;}
	.st19{fill:#85111B;}
	.st20{fill:#86111B;}
	.st21{fill:#87121B;}
	.st22{fill:#88121B;}
	.st23{fill:#89121C;}
	.st24{fill:#8A121C;}
	.st25{fill:#8B121C;}
	.st26{fill:#8C121C;}
	.st27{fill:#8D121C;}
	.st28{fill:#8E121D;}
	.st29{fill:#8F131D;}
	.st30{fill:#90131D;}
	.st31{fill:#91131D;}
	.st32{fill:#92131D;}
	.st33{fill:#93131E;}
	.st34{fill:#94131E;}
	.st35{fill:#95131E;}
	.st36{fill:#96131E;}
	.st37{fill:#97141E;}
	.st38{fill:#98141F;}
	.st39{fill:#99141F;}
	.st40{fill:#9A141F;}
	.st41{fill:#9B141F;}
	.st42{fill:#9C141F;}
	.st43{fill:#9D1420;}
	.st44{fill:#9E1420;}
	.st45{fill:#9F1420;}
	.st46{fill:#A01520;}
	.st47{fill:#A11520;}
	.st48{fill:#A21521;}
	.st49{fill:#A31521;}
	.st50{fill:#A41521;}
	.st51{fill:#A51521;}
	.st52{fill:#A61521;}
	.st53{fill:#A71522;}
	.st54{fill:#A81622;}
	.st55{fill:#A91622;}
	.st56{fill:#AA1622;}
	.st57{fill:#AB1622;}
	.st58{fill:#AB1623;}
	.st59{fill:#AC1623;}
	.st60{fill:#AD1623;}
	.st61{fill:#AE1623;}
	.st62{fill:#AF1723;}
	.st63{fill:#B01724;}
	.st64{fill:#B11724;}
	.st65{fill:#B21724;}
	.st66{fill:#B31724;}
	.st67{fill:#B41724;}
	.st68{fill:#B51725;}
	.st69{fill:#B61725;}
	.st70{fill:#B71825;}
	.st71{fill:#B81825;}
	.st72{fill:#B91825;}
	.st73{fill:#BA1826;}
	.st74{fill:#BB1826;}
	.st75{fill:#BC1826;}
	.st76{fill:#BD1826;}
	.st77{fill:#BE1826;}
	.st78{fill:#BF1827;}
	.st79{fill:#C01927;}
	.st80{fill:#C11927;}
	.st81{fill:#C21927;}
	.st82{fill:#C31927;}
	.st83{fill:#C41928;}
	.st84{fill:#C51928;}
	.st85{fill:#C61928;}
	.st86{fill:#C71928;}
	.st87{fill:#C81A28;}
	.st88{fill:#C91A29;}
	.st89{fill:#CA1A29;}
	.st90{fill:#CB1A29;}
	.st91{fill:#CC1A29;}
	.st92{fill:#CD1A29;}
	.st93{fill:#CE1A2A;}
	.st94{fill:#CF1A2A;}
	.st95{fill:#D01B2A;}
	.st96{fill:#D11B2A;}
	.st97{fill:#D21B2A;}
	.st98{fill:#D31B2B;}
	.st99{fill:#D41B2B;}
	.st100{fill:#D51B2B;}
	.st101{fill:#D61B2B;}
	.st102{fill:#D71B2B;}
	.st103{fill:#D81C2C;}
	.st104{fill:#D91C2C;}
	.st105{fill:#DA1C2C;}
	.st106{fill:#DB1C2C;}
	.st107{fill:#DC1C2C;}
	.st108{fill:#DD1C2D;}
	.st109{fill:#DE1C2D;}
	.st110{fill:#DF1C2D;}
	.st111{fill:#E01D2D;}
	.st112{fill:#E11D2D;}
	.st113{fill:#E21D2E;}
	.st114{fill:#E31D2E;}
	.st115{fill:#E41D2E;}
	.st116{fill:#E41E2E;}
	.st117{fill:#E41F2F;}
	.st118{fill:#E4202F;}
	.st119{fill:#E4212F;}
	.st120{fill:#E4222F;}
	.st121{fill:#E32330;}
	.st122{fill:#E32430;}
	.st123{fill:#E32530;}
	.st124{fill:#E32630;}
	.st125{fill:#E32731;}
	.st126{fill:#E32831;}
	.st127{fill:#E32931;}
	.st128{fill:#E32A32;}
	.st129{fill:#E32B32;}
	.st130{fill:#E32C32;}
	.st131{fill:#E22D32;}
	.st132{fill:#E22E33;}
	.st133{fill:#E22F33;}
	.st134{fill:#E23033;}
	.st135{fill:#E23133;}
	.st136{fill:#E23234;}
	.st137{fill:#E23334;}
	.st138{fill:#E23434;}
	.st139{fill:#E23535;}
	.st140{fill:#E23635;}
	.st141{fill:#E13735;}
	.st142{fill:#E13835;}
	.st143{fill:#E13936;}
	.st144{fill:#E13A36;}
	.st145{fill:#E13B36;}
	.st146{fill:#E13C36;}
	.st147{fill:#E13D37;}
	.st148{fill:#E13E37;}
	.st149{fill:#E13F37;}
	.st150{fill:#E14037;}
	.st151{fill:#E14138;}
	.st152{fill:#E04238;}
	.st153{fill:#E04338;}
	.st154{fill:#E04439;}
	.st155{fill:#E04539;}
	.st156{fill:#E04639;}
	.st157{fill:#E04739;}
	.st158{fill:#E0483A;}
	.st159{fill:#E0493A;}
	.st160{fill:#E04A3A;}
	.st161{fill:#E04B3A;}
	.st162{fill:#DF4C3B;}
	.st163{fill:#DF4D3B;}
	.st164{fill:#DF4E3B;}
	.st165{fill:#DF4F3C;}
	.st166{fill:#DF503C;}
	.st167{fill:#DF513C;}
	.st168{fill:#DF523C;}
	.st169{fill:#DF533D;}
	.st170{fill:#DF543D;}
	.st171{fill:#DF553D;}
	.st172{fill:#DE563D;}
	.st173{fill:#DE573E;}
	.st174{fill:#DE583E;}
	.st175{fill:#DE593E;}
	.st176{fill:#DE5A3F;}
	.st177{fill:#DE5B3F;}
	.st178{fill:#DE5C3F;}
	.st179{fill:#DE5D3F;}
	.st180{fill:#DE5E40;}
	.st181{fill:#DE5F40;}
	.st182{fill:#DE6040;}
	.st183{fill:#DD6140;}
	.st184{fill:#DD6241;}
	.st185{fill:#DD6341;}
	.st186{fill:#DD6441;}
	.st187{fill:#DD6542;}
	.st188{fill:#DD6642;}
	.st189{fill:#DD6742;}
	.st190{fill:#DD6842;}
	.st191{fill:#DD6943;}
	.st192{fill:#DD6A43;}
	.st193{fill:#DC6B43;}
	.st194{fill:#DC6C43;}
	.st195{fill:#DC6D44;}
	.st196{fill:#DC6E44;}
	.st197{fill:#DC6F44;}
	.st198{fill:#DC7044;}
	.st199{fill:#DC7145;}
	.st200{fill:#DC7245;}
	.st201{fill:#DC7345;}
	.st202{fill:#DC7446;}
	.st203{fill:#DB7546;}
	.st204{fill:#DB7646;}
	.st205{fill:#DB7746;}
	.st206{fill:#DB7847;}
	.st207{fill:#DB7947;}
	.st208{fill:#DB7A47;}
	.st209{fill:#DB7B47;}
	.st210{fill:#DB7C48;}
	.st211{fill:#DB7D48;}
	.st212{fill:#DB7E48;}
	.st213{fill:#DB7F49;}
	.st214{fill:#DA8049;}
	.st215{fill:#DA8149;}
	.st216{fill:#DA8249;}
	.st217{fill:#DA834A;}
	.st218{fill:#DA844A;}
	.st219{fill:#DA854A;}
	.st220{fill:#DA864A;}
	.st221{fill:#DA874B;}
	.st222{fill:#DA884B;}
	.st223{fill:#DA894B;}
	.st224{fill:#D98A4C;}
	.st225{fill:#D98B4C;}
	.st226{fill:#D98C4C;}
	.st227{fill:#D98D4C;}
	.st228{fill:#D98E4D;}
	.st229{fill:#D98F4D;}
	.st230{fill:#D9904D;}
	.st231{fill:#D9914D;}
	.st232{fill:#D9924E;}
	.st233{fill:#D9934E;}
	.st234{fill:#D8944E;}
	.st235{fill:#D8954F;}
	.st236{fill:#D8964F;}
	.st237{fill:#D8974F;}
	.st238{fill:#D8984F;}
	.st239{fill:#D89950;}
	.st240{fill:#D89A50;}
	.st241{fill:#D89B50;}
	.st242{fill:#D89C50;}
	.st243{fill:#D89D51;}
	.st244{fill:#D89E51;}
	.st245{fill:#D79F51;}
	.st246{fill:#D7A051;}
	.st247{fill:#D7A152;}
	.st248{fill:#D7A252;}
	.st249{fill:#D7A352;}
	.st250{fill:#D7A453;}
	.st251{fill:#D7A553;}
	.st252{fill:#D7A653;}
	.st253{fill:#D7A753;}
	.st254{fill:#D7A854;}
	.st255{fill:#D6A954;}
	.st256{fill:#D6AA54;}
	.st257{fill:#D6AB54;}
	.st258{fill:#D6AC55;}
	.st259{fill:#D6AD55;}
	.st260{fill:#D6AE55;}
	.st261{fill:#D6AF56;}
	.st262{fill:#D6B056;}
	.st263{fill:#D6B156;}
	.st264{fill:#D6B256;}
	.st265{fill:#D5B357;}
	.st266{fill:#D5B457;}
	.st267{fill:#D5B557;}
	.st268{fill:#D5B657;}
	.st269{fill:#D5B758;}
	.st270{fill:#D5B858;}
	.st271{fill:#D4B759;}
	.st272{fill:#D3B65A;}
	.st273{fill:#D2B65B;}
	.st274{fill:#D1B55C;}
	.st275{fill:#D0B45D;}
	.st276{fill:#CFB35E;}
	.st277{fill:#CEB35F;}
	.st278{fill:#CDB260;}
	.st279{fill:#CCB160;}
	.st280{fill:#CBB061;}
	.st281{fill:#CAB062;}
	.st282{fill:#C9AF63;}
	.st283{fill:#C8AE64;}
	.st284{fill:#C7AD65;}
	.st285{fill:#C6AD66;}
	.st286{fill:#C5AC67;}
	.st287{fill:#C5AB68;}
	.st288{fill:#C4AA69;}
	.st289{fill:#C3AA6A;}
	.st290{fill:#C2A96B;}
	.st291{fill:#C1A86C;}
	.st292{fill:#C0A76D;}
	.st293{fill:#BFA76E;}
	.st294{fill:#BEA66F;}
	.st295{fill:#BDA56F;}
	.st296{fill:#BCA470;}
	.st297{fill:#BBA471;}
	.st298{fill:#BAA372;}
	.st299{fill:#B9A273;}
	.st300{fill:#B8A174;}
	.st301{fill:#B7A175;}
	.st302{fill:#B6A076;}
	.st303{fill:#B59F77;}
	.st304{fill:#B4A077;}
	.st305{fill:#B3A177;}
	.st306{fill:#B2A277;}
	.st307{fill:#B1A377;}
	.st308{fill:#B0A377;}
	.st309{fill:#AFA478;}
	.st310{fill:#AEA578;}
	.st311{fill:#ADA678;}
	.st312{fill:#ACA778;}
	.st313{fill:#ABA878;}
	.st314{fill:#AAA978;}
	.st315{fill:#A9AA78;}
	.st316{fill:#A8AB78;}
	.st317{fill:#A7AC78;}
	.st318{fill:#A6AC78;}
	.st319{fill:#A5AD78;}
	.st320{fill:#A4AE78;}
	.st321{fill:#A3AF79;}
	.st322{fill:#A2B079;}
	.st323{fill:#A1B179;}
	.st324{fill:#A0B279;}
	.st325{fill:#9FB379;}
	.st326{fill:#9EB479;}
	.st327{fill:#9DB579;}
	.st328{fill:#9CB679;}
	.st329{fill:#9BB779;}
	.st330{fill:#9AB879;}
	.st331{fill:#99B979;}
	.st332{fill:#98BA7A;}
	.st333{fill:#97BB7A;}
	.st334{fill:#96BC7A;}
	.st335{fill:#95BC7A;}
	.st336{fill:#94BD7A;}
	.st337{fill:#93BE7A;}
	.st338{fill:#92BF7A;}
	.st339{fill:#91C07A;}
	.st340{fill:#90C17A;}
	.st341{fill:#8FC27A;}
	.st342{fill:#8EC37A;}
	.st343{fill:#8DC47A;}
	.st344{fill:#8CC57B;}
	.st345{fill:#8BC57B;}
	.st346{fill:#8AC67B;}
	.st347{fill:#89C77B;}
	.st348{fill:#88C87B;}
	.st349{fill:#87C97B;}
	.st350{fill:#86C87C;}
	.st351{fill:#85C77D;}
	.st352{fill:#85C67E;}
	.st353{fill:#84C57E;}
	.st354{fill:#83C47F;}
	.st355{fill:#82C380;}
	.st356{fill:#81C281;}
	.st357{fill:#81C182;}
	.st358{fill:#80C083;}
	.st359{fill:#7FBF83;}
	.st360{fill:#7EBE84;}
	.st361{fill:#7DBD85;}
	.st362{fill:#7DBD86;}
	.st363{fill:#7CBC87;}
	.st364{fill:#7BBB88;}
	.st365{fill:#7ABA89;}
	.st366{fill:#79B989;}
	.st367{fill:#78B88A;}
	.st368{fill:#78B78B;}
	.st369{fill:#77B68C;}
	.st370{fill:#76B58D;}
	.st371{fill:#75B48E;}
	.st372{fill:#74B38E;}
	.st373{fill:#74B28F;}
	.st374{fill:#73B190;}
	.st375{fill:#72B091;}
	.st376{fill:#73B192;}
	.st377{fill:#73B193;}
	.st378{fill:#74B294;}
	.st379{fill:#75B295;}
	.st380{fill:#75B396;}
	.st381{fill:#76B497;}
	.st382{fill:#77B498;}
	.st383{fill:#77B599;}
	.st384{fill:#78B59A;}
	.st385{fill:#78B69B;}
	.st386{fill:#79B79C;}
	.st387{fill:#7AB79D;}
	.st388{fill:#7AB89E;}
	.st389{fill:#7BB89F;}
	.st390{fill:#7CB9A0;}
	.st391{fill:#7CBAA1;}
	.st392{fill:#7DBAA2;}
	.st393{fill:#7EBBA3;}
	.st394{fill:#7EBBA4;}
	.st395{fill:#7FBCA5;}
	.st396{fill:#80BCA6;}
	.st397{fill:#80BDA7;}
	.st398{fill:#81BEA8;}
	.st399{fill:#81BEA9;}
	.st400{fill:#82BFAA;}
	.st401{fill:#83BFAB;}
	.st402{fill:#83C0AC;}
	.st403{fill:#84C1AD;}
	.st404{fill:#85C1AE;}
	.st405{fill:#85C2AF;}
	.st406{fill:#86C2B0;}
	.st407{fill:#87C3B1;}
	.st408{fill:#87C4B2;}
	.st409{fill:#88C4B3;}
	.st410{fill:#89C5B4;}
	.st411{fill:#89C5B5;}
	.st412{fill:#8AC6B6;}
	.st413{fill:#8BC7B7;}
	.st414{fill:#8BC7B8;}
	.st415{fill:#8CC8B8;}
	.st416{fill:#8CC8B9;}
	.st417{fill:#8DC9BA;}
	.st418{fill:#8ECABB;}
	.st419{fill:#8ECABC;}
	.st420{fill:#8FCBBD;}
	.st421{fill:#90CBBE;}
	.st422{fill:#90CCBF;}
	.st423{fill:#91CDC0;}
	.st424{fill:#92CDC1;}
	.st425{fill:#92CEC2;}
	.st426{fill:#93CEC3;}
	.st427{fill:#94CFC4;}
	.st428{fill:#94D0C5;}
	.st429{fill:#95D0C6;}
	.st430{fill:#96D1C7;}
	.st431{fill:#96D1C8;}
	.st432{fill:#97D2C9;}
	.st433{fill:#97D3CA;}
	.st434{fill:#98D3CB;}
	.st435{fill:#99D4CC;}
	.st436{fill:#99D4CD;}
	.st437{fill:#9AD5CE;}
	.st438{fill:#9BD5CF;}
	.st439{fill:#9BD6D0;}
	.st440{fill:#9CD7D1;}
	.st441{fill:#9DD7D2;}
	.st442{fill:#9DD8D3;}
	.st443{fill:#9ED8D4;}
	.st444{fill:#9FD9D5;}
	.st445{fill:#9FDAD6;}
	.st446{fill:#A0DAD7;}
	.st447{fill:#A0DBD8;}
	.st448{fill:#A1DBD9;}
	.st449{fill:#A2DCDA;}
	.st450{fill:#A2DDDB;}
	.st451{fill:#A3DDDC;}
	.st452{fill:#A4DEDD;}
	.st453{fill:#A4DEDE;}
	.st454{fill:#A5DFDF;}
	.st455{clip-path:url(#SVGID_2_);fill:#231F20;}
</style>
<g>
	<rect y="43.5" class="st0" width="10" height="5.3"/>
	<rect x="0.6" y="43.5" class="st1" width="10" height="5.3"/>
	<rect x="1.1" y="43.5" class="st2" width="10" height="5.3"/>
	<rect x="1.7" y="43.5" class="st3" width="10" height="5.3"/>
	<rect x="2.3" y="43.5" class="st4" width="10" height="5.3"/>
	<rect x="2.9" y="43.5" class="st5" width="10" height="5.3"/>
	<rect x="3.4" y="43.5" class="st6" width="10" height="5.3"/>
	<rect x="4" y="43.5" class="st7" width="10" height="5.3"/>
	<rect x="4.6" y="43.5" class="st8" width="10" height="5.3"/>
	<rect x="5.2" y="43.5" class="st9" width="10" height="5.3"/>
	<rect x="5.7" y="43.5" class="st10" width="10" height="5.3"/>
	<rect x="6.3" y="43.5" class="st11" width="10" height="5.3"/>
	<rect x="6.9" y="43.5" class="st12" width="10" height="5.3"/>
	<rect x="7.4" y="43.5" class="st13" width="10" height="5.3"/>
	<rect x="8" y="43.5" class="st14" width="10" height="5.3"/>
	<rect x="8.6" y="43.5" class="st15" width="10" height="5.3"/>
	<rect x="9.2" y="43.5" class="st16" width="10" height="5.3"/>
	<rect x="9.7" y="43.5" class="st17" width="10" height="5.3"/>
	<rect x="10.3" y="43.5" class="st18" width="10" height="5.3"/>
	<rect x="10.9" y="43.5" class="st19" width="10" height="5.3"/>
	<rect x="11.4" y="43.5" class="st20" width="10" height="5.3"/>
	<rect x="12" y="43.5" class="st21" width="10" height="5.3"/>
	<rect x="12.6" y="43.5" class="st22" width="10" height="5.3"/>
	<rect x="13.2" y="43.5" class="st23" width="10" height="5.3"/>
	<rect x="13.7" y="43.5" class="st24" width="10" height="5.3"/>
	<rect x="14.3" y="43.5" class="st25" width="10" height="5.3"/>
	<rect x="14.9" y="43.5" class="st26" width="10" height="5.3"/>
	<rect x="15.4" y="43.5" class="st27" width="10" height="5.3"/>
	<rect x="16" y="43.5" class="st28" width="10" height="5.3"/>
	<rect x="16.6" y="43.5" class="st29" width="10" height="5.3"/>
	<rect x="17.2" y="43.5" class="st30" width="10" height="5.3"/>
	<rect x="17.7" y="43.5" class="st31" width="10" height="5.3"/>
	<rect x="18.3" y="43.5" class="st32" width="10" height="5.3"/>
	<rect x="18.9" y="43.5" class="st33" width="10" height="5.3"/>
	<rect x="19.5" y="43.5" class="st34" width="10" height="5.3"/>
	<rect x="20" y="43.5" class="st35" width="10" height="5.3"/>
	<rect x="20.6" y="43.5" class="st36" width="10" height="5.3"/>
	<rect x="21.2" y="43.5" class="st37" width="10" height="5.3"/>
	<rect x="21.7" y="43.5" class="st38" width="10" height="5.3"/>
	<rect x="22.3" y="43.5" class="st39" width="10" height="5.3"/>
	<rect x="22.9" y="43.5" class="st40" width="10" height="5.3"/>
	<rect x="23.5" y="43.5" class="st41" width="10" height="5.3"/>
	<rect x="24" y="43.5" class="st42" width="10" height="5.3"/>
	<rect x="24.6" y="43.5" class="st43" width="10" height="5.3"/>
	<rect x="25.2" y="43.5" class="st44" width="10" height="5.3"/>
	<rect x="25.7" y="43.5" class="st45" width="10" height="5.3"/>
	<rect x="26.3" y="43.5" class="st46" width="10" height="5.3"/>
	<rect x="26.9" y="43.5" class="st47" width="10" height="5.3"/>
	<rect x="27.5" y="43.5" class="st48" width="10" height="5.3"/>
	<rect x="28" y="43.5" class="st49" width="10" height="5.3"/>
	<rect x="28.6" y="43.5" class="st50" width="10" height="5.3"/>
	<rect x="29.2" y="43.5" class="st51" width="10" height="5.3"/>
	<rect x="29.7" y="43.5" class="st52" width="10" height="5.3"/>
	<rect x="30.3" y="43.5" class="st53" width="10" height="5.3"/>
	<rect x="30.9" y="43.5" class="st54" width="10" height="5.3"/>
	<rect x="31.5" y="43.5" class="st55" width="10" height="5.3"/>
	<rect x="32" y="43.5" class="st56" width="10" height="5.3"/>
	<rect x="32.6" y="43.5" class="st57" width="10" height="5.3"/>
	<rect x="33.2" y="43.5" class="st58" width="10" height="5.3"/>
	<rect x="33.8" y="43.5" class="st59" width="10" height="5.3"/>
	<rect x="34.3" y="43.5" class="st60" width="10" height="5.3"/>
	<rect x="34.9" y="43.5" class="st61" width="10" height="5.3"/>
	<rect x="35.5" y="43.5" class="st62" width="10" height="5.3"/>
	<rect x="36" y="43.5" class="st63" width="10" height="5.3"/>
	<rect x="36.6" y="43.5" class="st64" width="10" height="5.3"/>
	<rect x="37.2" y="43.5" class="st65" width="10" height="5.3"/>
	<rect x="37.8" y="43.5" class="st66" width="10" height="5.3"/>
	<rect x="38.3" y="43.5" class="st67" width="10" height="5.3"/>
	<rect x="38.9" y="43.5" class="st68" width="10" height="5.3"/>
	<rect x="39.5" y="43.5" class="st69" width="10" height="5.3"/>
	<rect x="40" y="43.5" class="st70" width="10" height="5.3"/>
	<rect x="40.6" y="43.5" class="st71" width="10" height="5.3"/>
	<rect x="41.2" y="43.5" class="st72" width="10" height="5.3"/>
	<rect x="41.8" y="43.5" class="st73" width="10" height="5.3"/>
	<rect x="42.3" y="43.5" class="st74" width="10" height="5.3"/>
	<rect x="42.9" y="43.5" class="st75" width="10" height="5.3"/>
	<rect x="43.5" y="43.5" class="st76" width="10" height="5.3"/>
	<rect x="44.1" y="43.5" class="st77" width="10" height="5.3"/>
	<rect x="44.6" y="43.5" class="st78" width="10" height="5.3"/>
	<rect x="45.2" y="43.5" class="st79" width="10" height="5.3"/>
	<rect x="45.8" y="43.5" class="st80" width="10" height="5.3"/>
	<rect x="46.3" y="43.5" class="st81" width="10" height="5.3"/>
	<rect x="46.9" y="43.5" class="st82" width="10" height="5.3"/>
	<rect x="47.5" y="43.5" class="st83" width="10" height="5.3"/>
	<rect x="48.1" y="43.5" class="st84" width="10" height="5.3"/>
	<rect x="48.6" y="43.5" class="st85" width="10" height="5.3"/>
	<rect x="49.2" y="43.5" class="st86" width="10" height="5.3"/>
	<rect x="49.8" y="43.5" class="st87" width="10" height="5.3"/>
	<rect x="50.3" y="43.5" class="st88" width="10" height="5.3"/>
	<rect x="50.9" y="43.5" class="st89" width="10" height="5.3"/>
	<rect x="51.5" y="43.5" class="st90" width="10" height="5.3"/>
	<rect x="52.1" y="43.5" class="st91" width="10" height="5.3"/>
	<rect x="52.6" y="43.5" class="st92" width="10" height="5.3"/>
	<rect x="53.2" y="43.5" class="st93" width="10" height="5.3"/>
	<rect x="53.8" y="43.5" class="st94" width="10" height="5.3"/>
	<rect x="54.4" y="43.5" class="st95" width="10" height="5.3"/>
	<rect x="54.9" y="43.5" class="st96" width="10" height="5.3"/>
	<rect x="55.5" y="43.5" class="st97" width="10" height="5.3"/>
	<rect x="56.1" y="43.5" class="st98" width="10" height="5.3"/>
	<rect x="56.6" y="43.5" class="st99" width="10" height="5.3"/>
	<rect x="57.2" y="43.5" class="st100" width="10" height="5.3"/>
	<rect x="57.8" y="43.5" class="st101" width="10" height="5.3"/>
	<rect x="58.4" y="43.5" class="st102" width="10" height="5.3"/>
	<rect x="58.9" y="43.5" class="st103" width="10" height="5.3"/>
	<rect x="59.5" y="43.5" class="st104" width="10" height="5.3"/>
	<rect x="60.1" y="43.5" class="st105" width="10" height="5.3"/>
	<rect x="60.6" y="43.5" class="st106" width="10" height="5.3"/>
	<rect x="61.2" y="43.5" class="st107" width="10" height="5.3"/>
	<rect x="61.8" y="43.5" class="st108" width="10" height="5.3"/>
	<rect x="62.4" y="43.5" class="st109" width="10" height="5.3"/>
	<rect x="62.9" y="43.5" class="st110" width="10" height="5.3"/>
	<rect x="63.5" y="43.5" class="st111" width="10" height="5.3"/>
	<rect x="64.1" y="43.5" class="st112" width="10" height="5.3"/>
	<rect x="64.6" y="43.5" class="st113" width="10" height="5.3"/>
	<rect x="65.2" y="43.5" class="st114" width="10" height="5.3"/>
	<rect x="65.8" y="43.5" class="st115" width="10" height="5.3"/>
	<rect x="66.2" y="43.5" class="st116" width="10" height="5.3"/>
	<rect x="66.6" y="43.5" class="st117" width="10" height="5.3"/>
	<rect x="67.1" y="43.5" class="st118" width="10" height="5.3"/>
	<rect x="67.5" y="43.5" class="st119" width="10" height="5.3"/>
	<rect x="67.9" y="43.5" class="st120" width="10" height="5.3"/>
	<rect x="68.3" y="43.5" class="st121" width="10" height="5.3"/>
	<rect x="68.8" y="43.5" class="st122" width="10" height="5.3"/>
	<rect x="69.2" y="43.5" class="st123" width="10" height="5.3"/>
	<rect x="69.6" y="43.5" class="st124" width="10" height="5.3"/>
	<rect x="70" y="43.5" class="st125" width="10" height="5.3"/>
	<rect x="70.5" y="43.5" class="st126" width="10" height="5.3"/>
	<rect x="70.9" y="43.5" class="st127" width="10" height="5.3"/>
	<rect x="71.3" y="43.5" class="st128" width="10" height="5.3"/>
	<rect x="71.7" y="43.5" class="st129" width="10" height="5.3"/>
	<rect x="72.2" y="43.5" class="st130" width="10" height="5.3"/>
	<rect x="72.6" y="43.5" class="st131" width="10" height="5.3"/>
	<rect x="73" y="43.5" class="st132" width="10" height="5.3"/>
	<rect x="73.4" y="43.5" class="st133" width="10" height="5.3"/>
	<rect x="73.9" y="43.5" class="st134" width="10" height="5.3"/>
	<rect x="74.3" y="43.5" class="st135" width="10" height="5.3"/>
	<rect x="74.7" y="43.5" class="st136" width="10" height="5.3"/>
	<rect x="75.1" y="43.5" class="st137" width="10" height="5.3"/>
	<rect x="75.6" y="43.5" class="st138" width="10" height="5.3"/>
	<rect x="76" y="43.5" class="st139" width="10" height="5.3"/>
	<rect x="76.4" y="43.5" class="st140" width="10" height="5.3"/>
	<rect x="76.8" y="43.5" class="st141" width="10" height="5.3"/>
	<rect x="77.3" y="43.5" class="st142" width="10" height="5.3"/>
	<rect x="77.7" y="43.5" class="st143" width="10" height="5.3"/>
	<rect x="78.1" y="43.5" class="st144" width="10" height="5.3"/>
	<rect x="78.5" y="43.5" class="st145" width="10" height="5.3"/>
	<rect x="78.9" y="43.5" class="st146" width="10" height="5.3"/>
	<rect x="79.4" y="43.5" class="st147" width="10" height="5.3"/>
	<rect x="79.8" y="43.5" class="st148" width="10" height="5.3"/>
	<rect x="80.2" y="43.5" class="st149" width="10" height="5.3"/>
	<rect x="80.6" y="43.5" class="st150" width="10" height="5.3"/>
	<rect x="81.1" y="43.5" class="st151" width="10" height="5.3"/>
	<rect x="81.5" y="43.5" class="st152" width="10" height="5.3"/>
	<rect x="81.9" y="43.5" class="st153" width="10" height="5.3"/>
	<rect x="82.3" y="43.5" class="st154" width="10" height="5.3"/>
	<rect x="82.8" y="43.5" class="st155" width="10" height="5.3"/>
	<rect x="83.2" y="43.5" class="st156" width="10" height="5.3"/>
	<rect x="83.6" y="43.5" class="st157" width="10" height="5.3"/>
	<rect x="84" y="43.5" class="st158" width="10" height="5.3"/>
	<rect x="84.5" y="43.5" class="st159" width="10" height="5.3"/>
	<rect x="84.9" y="43.5" class="st160" width="10" height="5.3"/>
	<rect x="85.3" y="43.5" class="st161" width="10" height="5.3"/>
	<rect x="85.7" y="43.5" class="st162" width="10" height="5.3"/>
	<rect x="86.2" y="43.5" class="st163" width="10" height="5.3"/>
	<rect x="86.6" y="43.5" class="st164" width="10" height="5.3"/>
	<rect x="87" y="43.5" class="st165" width="10" height="5.3"/>
	<rect x="87.4" y="43.5" class="st166" width="10" height="5.3"/>
	<rect x="87.9" y="43.5" class="st167" width="10" height="5.3"/>
	<rect x="88.3" y="43.5" class="st168" width="10" height="5.3"/>
	<rect x="88.7" y="43.5" class="st169" width="10" height="5.3"/>
	<rect x="89.1" y="43.5" class="st170" width="10" height="5.3"/>
	<rect x="89.6" y="43.5" class="st171" width="10" height="5.3"/>
	<rect x="90" y="43.5" class="st172" width="10" height="5.3"/>
	<rect x="90.4" y="43.5" class="st173" width="10" height="5.3"/>
	<rect x="90.8" y="43.5" class="st174" width="10" height="5.3"/>
	<rect x="91.3" y="43.5" class="st175" width="10" height="5.3"/>
	<rect x="91.7" y="43.5" class="st176" width="10" height="5.3"/>
	<rect x="92.1" y="43.5" class="st177" width="10" height="5.3"/>
	<rect x="92.5" y="43.5" class="st178" width="10" height="5.3"/>
	<rect x="93" y="43.5" class="st179" width="10" height="5.3"/>
	<rect x="93.4" y="43.5" class="st180" width="10" height="5.3"/>
	<rect x="93.8" y="43.5" class="st181" width="10" height="5.3"/>
	<rect x="94.2" y="43.5" class="st182" width="10" height="5.3"/>
	<rect x="94.7" y="43.5" class="st183" width="10" height="5.3"/>
	<rect x="95.1" y="43.5" class="st184" width="10" height="5.3"/>
	<rect x="95.5" y="43.5" class="st185" width="10" height="5.3"/>
	<rect x="95.9" y="43.5" class="st186" width="10" height="5.3"/>
	<rect x="96.4" y="43.5" class="st187" width="10" height="5.3"/>
	<rect x="96.8" y="43.5" class="st188" width="10" height="5.3"/>
	<rect x="97.2" y="43.5" class="st189" width="10" height="5.3"/>
	<rect x="97.6" y="43.5" class="st190" width="10" height="5.3"/>
	<rect x="98" y="43.5" class="st191" width="10" height="5.3"/>
	<rect x="98.5" y="43.5" class="st192" width="10" height="5.3"/>
	<rect x="98.9" y="43.5" class="st193" width="10" height="5.3"/>
	<rect x="99.3" y="43.5" class="st194" width="10" height="5.3"/>
	<rect x="99.7" y="43.5" class="st195" width="10" height="5.3"/>
	<rect x="100.2" y="43.5" class="st196" width="10" height="5.3"/>
	<rect x="100.6" y="43.5" class="st197" width="10" height="5.3"/>
	<rect x="101" y="43.5" class="st198" width="10" height="5.3"/>
	<rect x="101.4" y="43.5" class="st199" width="10" height="5.3"/>
	<rect x="101.9" y="43.5" class="st200" width="10" height="5.3"/>
	<rect x="102.3" y="43.5" class="st201" width="10" height="5.3"/>
	<rect x="102.7" y="43.5" class="st202" width="10" height="5.3"/>
	<rect x="103.1" y="43.5" class="st203" width="10" height="5.3"/>
	<rect x="103.6" y="43.5" class="st204" width="10" height="5.3"/>
	<rect x="104" y="43.5" class="st205" width="10" height="5.3"/>
	<rect x="104.4" y="43.5" class="st206" width="10" height="5.3"/>
	<rect x="104.8" y="43.5" class="st207" width="10" height="5.3"/>
	<rect x="105.3" y="43.5" class="st208" width="10" height="5.3"/>
	<rect x="105.7" y="43.5" class="st209" width="10" height="5.3"/>
	<rect x="106.1" y="43.5" class="st210" width="10" height="5.3"/>
	<rect x="106.5" y="43.5" class="st211" width="10" height="5.3"/>
	<rect x="107" y="43.5" class="st212" width="10" height="5.3"/>
	<rect x="107.4" y="43.5" class="st213" width="10" height="5.3"/>
	<rect x="107.8" y="43.5" class="st214" width="10" height="5.3"/>
	<rect x="108.2" y="43.5" class="st215" width="10" height="5.3"/>
	<rect x="108.7" y="43.5" class="st216" width="10" height="5.3"/>
	<rect x="109.1" y="43.5" class="st217" width="10" height="5.3"/>
	<rect x="109.5" y="43.5" class="st218" width="10" height="5.3"/>
	<rect x="109.9" y="43.5" class="st219" width="10" height="5.3"/>
	<rect x="110.4" y="43.5" class="st220" width="10" height="5.3"/>
	<rect x="110.8" y="43.5" class="st221" width="10" height="5.3"/>
	<rect x="111.2" y="43.5" class="st222" width="10" height="5.3"/>
	<rect x="111.6" y="43.5" class="st223" width="10" height="5.3"/>
	<rect x="112.1" y="43.5" class="st224" width="10" height="5.3"/>
	<rect x="112.5" y="43.5" class="st225" width="10" height="5.3"/>
	<rect x="112.9" y="43.5" class="st226" width="10" height="5.3"/>
	<rect x="113.3" y="43.5" class="st227" width="10" height="5.3"/>
	<rect x="113.8" y="43.5" class="st228" width="10" height="5.3"/>
	<rect x="114.2" y="43.5" class="st229" width="10" height="5.3"/>
	<rect x="114.6" y="43.5" class="st230" width="10" height="5.3"/>
	<rect x="115" y="43.5" class="st231" width="10" height="5.3"/>
	<rect x="115.5" y="43.5" class="st232" width="10" height="5.3"/>
	<rect x="115.9" y="43.5" class="st233" width="10" height="5.3"/>
	<rect x="116.3" y="43.5" class="st234" width="10" height="5.3"/>
	<rect x="116.7" y="43.5" class="st235" width="10" height="5.3"/>
	<rect x="117.2" y="43.5" class="st236" width="10" height="5.3"/>
	<rect x="117.6" y="43.5" class="st237" width="10" height="5.3"/>
	<rect x="118" y="43.5" class="st238" width="10" height="5.3"/>
	<rect x="118.4" y="43.5" class="st239" width="10" height="5.3"/>
	<rect x="118.8" y="43.5" class="st240" width="10" height="5.3"/>
	<rect x="119.3" y="43.5" class="st241" width="10" height="5.3"/>
	<rect x="119.7" y="43.5" class="st242" width="10" height="5.3"/>
	<rect x="120.1" y="43.5" class="st243" width="10" height="5.3"/>
	<rect x="120.5" y="43.5" class="st244" width="10" height="5.3"/>
	<rect x="121" y="43.5" class="st245" width="10" height="5.3"/>
	<rect x="121.4" y="43.5" class="st246" width="10" height="5.3"/>
	<rect x="121.8" y="43.5" class="st247" width="10" height="5.3"/>
	<rect x="122.2" y="43.5" class="st248" width="10" height="5.3"/>
	<rect x="122.7" y="43.5" class="st249" width="10" height="5.3"/>
	<rect x="123.1" y="43.5" class="st250" width="10" height="5.3"/>
	<rect x="123.5" y="43.5" class="st251" width="10" height="5.3"/>
	<rect x="123.9" y="43.5" class="st252" width="10" height="5.3"/>
	<rect x="124.4" y="43.5" class="st253" width="10" height="5.3"/>
	<rect x="124.8" y="43.5" class="st254" width="10" height="5.3"/>
	<rect x="125.2" y="43.5" class="st255" width="10" height="5.3"/>
	<rect x="125.6" y="43.5" class="st256" width="10" height="5.3"/>
	<rect x="126.1" y="43.5" class="st257" width="10" height="5.3"/>
	<rect x="126.5" y="43.5" class="st258" width="10" height="5.3"/>
	<rect x="126.9" y="43.5" class="st259" width="10" height="5.3"/>
	<rect x="127.3" y="43.5" class="st260" width="10" height="5.3"/>
	<rect x="127.8" y="43.5" class="st261" width="10" height="5.3"/>
	<rect x="128.2" y="43.5" class="st262" width="10" height="5.3"/>
	<rect x="128.6" y="43.5" class="st263" width="10" height="5.3"/>
	<rect x="129" y="43.5" class="st264" width="10" height="5.3"/>
	<rect x="129.5" y="43.5" class="st265" width="10" height="5.3"/>
	<rect x="129.9" y="43.5" class="st266" width="10" height="5.3"/>
	<rect x="130.3" y="43.5" class="st267" width="10" height="5.3"/>
	<rect x="130.7" y="43.5" class="st268" width="10" height="5.3"/>
	<rect x="131.2" y="43.5" class="st269" width="10" height="5.3"/>
	<rect x="131.6" y="43.5" class="st270" width="10" height="5.3"/>
	<rect x="133.6" y="43.5" class="st271" width="10" height="5.3"/>
	<rect x="135.6" y="43.5" class="st272" width="10" height="5.3"/>
	<rect x="137.6" y="43.5" class="st273" width="10" height="5.3"/>
	<rect x="139.6" y="43.5" class="st274" width="10" height="5.3"/>
	<rect x="141.5" y="43.5" class="st275" width="10" height="5.3"/>
	<rect x="143.5" y="43.5" class="st276" width="10" height="5.3"/>
	<rect x="145.5" y="43.5" class="st277" width="10" height="5.3"/>
	<rect x="147.5" y="43.5" class="st278" width="10" height="5.3"/>
	<rect x="149.5" y="43.5" class="st279" width="10" height="5.3"/>
	<rect x="151.5" y="43.5" class="st280" width="10" height="5.3"/>
	<rect x="153.5" y="43.5" class="st281" width="10" height="5.3"/>
	<rect x="155.5" y="43.5" class="st282" width="10" height="5.3"/>
	<rect x="157.5" y="43.5" class="st283" width="10" height="5.3"/>
	<rect x="159.5" y="43.5" class="st284" width="10" height="5.3"/>
	<rect x="161.5" y="43.5" class="st285" width="10" height="5.3"/>
	<rect x="163.5" y="43.5" class="st286" width="10" height="5.3"/>
	<rect x="165.5" y="43.5" class="st287" width="10" height="5.3"/>
	<rect x="167.5" y="43.5" class="st288" width="10" height="5.3"/>
	<rect x="169.5" y="43.5" class="st289" width="10" height="5.3"/>
	<rect x="171.5" y="43.5" class="st290" width="10" height="5.3"/>
	<rect x="173.4" y="43.5" class="st291" width="10" height="5.3"/>
	<rect x="175.4" y="43.5" class="st292" width="10" height="5.3"/>
	<rect x="177.4" y="43.5" class="st293" width="10" height="5.3"/>
	<rect x="179.4" y="43.5" class="st294" width="10" height="5.3"/>
	<rect x="181.4" y="43.5" class="st295" width="10" height="5.3"/>
	<rect x="183.4" y="43.5" class="st296" width="10" height="5.3"/>
	<rect x="185.4" y="43.5" class="st297" width="10" height="5.3"/>
	<rect x="187.4" y="43.5" class="st298" width="10" height="5.3"/>
	<rect x="189.4" y="43.5" class="st299" width="10" height="5.3"/>
	<rect x="191.4" y="43.5" class="st300" width="10" height="5.3"/>
	<rect x="193.4" y="43.5" class="st301" width="10" height="5.3"/>
	<rect x="195.4" y="43.5" class="st302" width="10" height="5.3"/>
	<rect x="197.4" y="43.5" class="st303" width="10" height="5.3"/>
	<rect x="198.8" y="43.5" class="st304" width="10" height="5.3"/>
	<rect x="200.2" y="43.5" class="st305" width="10" height="5.3"/>
	<rect x="201.6" y="43.5" class="st306" width="10" height="5.3"/>
	<rect x="203" y="43.5" class="st307" width="10" height="5.3"/>
	<rect x="204.4" y="43.5" class="st308" width="10" height="5.3"/>
	<rect x="205.8" y="43.5" class="st309" width="10" height="5.3"/>
	<rect x="207.2" y="43.5" class="st310" width="10" height="5.3"/>
	<rect x="208.6" y="43.5" class="st311" width="10" height="5.3"/>
	<rect x="210" y="43.5" class="st312" width="10" height="5.3"/>
	<rect x="211.4" y="43.5" class="st313" width="10" height="5.3"/>
	<rect x="212.8" y="43.5" class="st314" width="10" height="5.3"/>
	<rect x="214.2" y="43.5" class="st315" width="10" height="5.3"/>
	<rect x="215.6" y="43.5" class="st316" width="10" height="5.3"/>
	<rect x="217" y="43.5" class="st317" width="10" height="5.3"/>
	<rect x="218.4" y="43.5" class="st318" width="10" height="5.3"/>
	<rect x="219.8" y="43.5" class="st319" width="10" height="5.3"/>
	<rect x="221.2" y="43.5" class="st320" width="10" height="5.3"/>
	<rect x="222.6" y="43.5" class="st321" width="10" height="5.3"/>
	<rect x="224" y="43.5" class="st322" width="10" height="5.3"/>
	<rect x="225.4" y="43.5" class="st323" width="10" height="5.3"/>
	<rect x="226.8" y="43.5" class="st324" width="10" height="5.3"/>
	<rect x="228.2" y="43.5" class="st325" width="10" height="5.3"/>
	<rect x="229.6" y="43.5" class="st326" width="10" height="5.3"/>
	<rect x="231" y="43.5" class="st326" width="10" height="5.3"/>
	<rect x="232.4" y="43.5" class="st327" width="10" height="5.3"/>
	<rect x="233.8" y="43.5" class="st328" width="10" height="5.3"/>
	<rect x="235.2" y="43.5" class="st329" width="10" height="5.3"/>
	<rect x="236.6" y="43.5" class="st330" width="10" height="5.3"/>
	<rect x="238" y="43.5" class="st331" width="10" height="5.3"/>
	<rect x="239.4" y="43.5" class="st332" width="10" height="5.3"/>
	<rect x="240.8" y="43.5" class="st333" width="10" height="5.3"/>
	<rect x="242.2" y="43.5" class="st334" width="10" height="5.3"/>
	<rect x="243.6" y="43.5" class="st335" width="10" height="5.3"/>
	<rect x="245" y="43.5" class="st336" width="10" height="5.3"/>
	<rect x="246.4" y="43.5" class="st337" width="10" height="5.3"/>
	<rect x="247.8" y="43.5" class="st338" width="10" height="5.3"/>
	<rect x="249.2" y="43.5" class="st339" width="10" height="5.3"/>
	<rect x="250.6" y="43.5" class="st340" width="10" height="5.3"/>
	<rect x="252" y="43.5" class="st341" width="10" height="5.3"/>
	<rect x="253.4" y="43.5" class="st342" width="10" height="5.3"/>
	<rect x="254.8" y="43.5" class="st343" width="10" height="5.3"/>
	<rect x="256.2" y="43.5" class="st344" width="10" height="5.3"/>
	<rect x="257.6" y="43.5" class="st345" width="10" height="5.3"/>
	<rect x="259" y="43.5" class="st346" width="10" height="5.3"/>
	<rect x="260.4" y="43.5" class="st347" width="10" height="5.3"/>
	<rect x="261.8" y="43.5" class="st348" width="10" height="5.3"/>
	<rect x="263.2" y="43.5" class="st349" width="10" height="5.3"/>
	<rect x="265.7" y="43.5" class="st350" width="10" height="5.3"/>
	<rect x="268.2" y="43.5" class="st351" width="10" height="5.3"/>
	<rect x="270.8" y="43.5" class="st352" width="10" height="5.3"/>
	<rect x="273.3" y="43.5" class="st353" width="10" height="5.3"/>
	<rect x="275.8" y="43.5" class="st354" width="10" height="5.3"/>
	<rect x="278.3" y="43.5" class="st355" width="10" height="5.3"/>
	<rect x="280.9" y="43.5" class="st356" width="10" height="5.3"/>
	<rect x="283.4" y="43.5" class="st357" width="10" height="5.3"/>
	<rect x="285.9" y="43.5" class="st358" width="10" height="5.3"/>
	<rect x="288.5" y="43.5" class="st359" width="10" height="5.3"/>
	<rect x="291" y="43.5" class="st360" width="10" height="5.3"/>
	<rect x="293.5" y="43.5" class="st361" width="10" height="5.3"/>
	<rect x="296.1" y="43.5" class="st362" width="10" height="5.3"/>
	<rect x="298.6" y="43.5" class="st363" width="10" height="5.3"/>
	<rect x="301.1" y="43.5" class="st364" width="10" height="5.3"/>
	<rect x="303.6" y="43.5" class="st365" width="10" height="5.3"/>
	<rect x="306.2" y="43.5" class="st366" width="10" height="5.3"/>
	<rect x="308.7" y="43.5" class="st367" width="10" height="5.3"/>
	<rect x="311.2" y="43.5" class="st368" width="10" height="5.3"/>
	<rect x="313.8" y="43.5" class="st369" width="10" height="5.3"/>
	<rect x="316.3" y="43.5" class="st370" width="10" height="5.3"/>
	<rect x="318.8" y="43.5" class="st371" width="10" height="5.3"/>
	<rect x="321.4" y="43.5" class="st372" width="10" height="5.3"/>
	<rect x="323.9" y="43.5" class="st373" width="10" height="5.3"/>
	<rect x="326.4" y="43.5" class="st374" width="10" height="5.3"/>
	<rect x="329" y="43.5" class="st375" width="10" height="5.3"/>
	<rect x="329.8" y="43.5" class="st376" width="10" height="5.3"/>
	<rect x="330.6" y="43.5" class="st377" width="10" height="5.3"/>
	<rect x="331.5" y="43.5" class="st378" width="10" height="5.3"/>
	<rect x="332.3" y="43.5" class="st379" width="10" height="5.3"/>
	<rect x="333.1" y="43.5" class="st380" width="10" height="5.3"/>
	<rect x="334" y="43.5" class="st381" width="10" height="5.3"/>
	<rect x="334.8" y="43.5" class="st382" width="10" height="5.3"/>
	<rect x="335.6" y="43.5" class="st383" width="10" height="5.3"/>
	<rect x="336.4" y="43.5" class="st384" width="10" height="5.3"/>
	<rect x="337.3" y="43.5" class="st385" width="10" height="5.3"/>
	<rect x="338.1" y="43.5" class="st386" width="10" height="5.3"/>
	<rect x="338.9" y="43.5" class="st387" width="10" height="5.3"/>
	<rect x="339.8" y="43.5" class="st388" width="10" height="5.3"/>
	<rect x="340.6" y="43.5" class="st389" width="10" height="5.3"/>
	<rect x="341.4" y="43.5" class="st390" width="10" height="5.3"/>
	<rect x="342.3" y="43.5" class="st391" width="10" height="5.3"/>
	<rect x="343.1" y="43.5" class="st392" width="10" height="5.3"/>
	<rect x="343.9" y="43.5" class="st393" width="10" height="5.3"/>
	<rect x="344.8" y="43.5" class="st394" width="10" height="5.3"/>
	<rect x="345.6" y="43.5" class="st395" width="10" height="5.3"/>
	<rect x="346.4" y="43.5" class="st396" width="10" height="5.3"/>
	<rect x="347.3" y="43.5" class="st397" width="10" height="5.3"/>
	<rect x="348.1" y="43.5" class="st398" width="10" height="5.3"/>
	<rect x="348.9" y="43.5" class="st399" width="10" height="5.3"/>
	<rect x="349.8" y="43.5" class="st400" width="10" height="5.3"/>
	<rect x="350.6" y="43.5" class="st401" width="10" height="5.3"/>
	<rect x="351.4" y="43.5" class="st402" width="10" height="5.3"/>
	<rect x="352.3" y="43.5" class="st403" width="10" height="5.3"/>
	<rect x="353.1" y="43.5" class="st404" width="10" height="5.3"/>
	<rect x="353.9" y="43.5" class="st405" width="10" height="5.3"/>
	<rect x="354.8" y="43.5" class="st406" width="10" height="5.3"/>
	<rect x="355.6" y="43.5" class="st407" width="10" height="5.3"/>
	<rect x="356.4" y="43.5" class="st408" width="10" height="5.3"/>
	<rect x="357.3" y="43.5" class="st409" width="10" height="5.3"/>
	<rect x="358.1" y="43.5" class="st410" width="10" height="5.3"/>
	<rect x="358.9" y="43.5" class="st411" width="10" height="5.3"/>
	<rect x="359.8" y="43.5" class="st412" width="10" height="5.3"/>
	<rect x="360.6" y="43.5" class="st413" width="10" height="5.3"/>
	<rect x="361.4" y="43.5" class="st414" width="10" height="5.3"/>
	<rect x="362.3" y="43.5" class="st415" width="10" height="5.3"/>
	<rect x="363.1" y="43.5" class="st416" width="10" height="5.3"/>
	<rect x="363.9" y="43.5" class="st417" width="10" height="5.3"/>
	<rect x="364.8" y="43.5" class="st418" width="10" height="5.3"/>
	<rect x="365.6" y="43.5" class="st419" width="10" height="5.3"/>
	<rect x="366.4" y="43.5" class="st420" width="10" height="5.3"/>
	<rect x="367.3" y="43.5" class="st421" width="10" height="5.3"/>
	<rect x="368.1" y="43.5" class="st422" width="10" height="5.3"/>
	<rect x="368.9" y="43.5" class="st423" width="10" height="5.3"/>
	<rect x="369.8" y="43.5" class="st424" width="10" height="5.3"/>
	<rect x="370.6" y="43.5" class="st425" width="10" height="5.3"/>
	<rect x="371.4" y="43.5" class="st426" width="10" height="5.3"/>
	<rect x="372.3" y="43.5" class="st427" width="10" height="5.3"/>
	<rect x="373.1" y="43.5" class="st428" width="10" height="5.3"/>
	<rect x="373.9" y="43.5" class="st429" width="10" height="5.3"/>
	<rect x="374.8" y="43.5" class="st430" width="10" height="5.3"/>
	<rect x="375.6" y="43.5" class="st431" width="10" height="5.3"/>
	<rect x="376.4" y="43.5" class="st432" width="10" height="5.3"/>
	<rect x="377.3" y="43.5" class="st433" width="10" height="5.3"/>
	<rect x="378.1" y="43.5" class="st434" width="10" height="5.3"/>
	<rect x="378.9" y="43.5" class="st435" width="10" height="5.3"/>
	<rect x="379.8" y="43.5" class="st436" width="10" height="5.3"/>
	<rect x="380.6" y="43.5" class="st437" width="10" height="5.3"/>
	<rect x="381.4" y="43.5" class="st438" width="10" height="5.3"/>
	<rect x="382.3" y="43.5" class="st439" width="10" height="5.3"/>
	<rect x="383.1" y="43.5" class="st440" width="10" height="5.3"/>
	<rect x="383.9" y="43.5" class="st441" width="10" height="5.3"/>
	<rect x="384.8" y="43.5" class="st442" width="10" height="5.3"/>
	<rect x="385.6" y="43.5" class="st443" width="10" height="5.3"/>
	<rect x="386.4" y="43.5" class="st444" width="10" height="5.3"/>
	<rect x="387.2" y="43.5" class="st445" width="10" height="5.3"/>
	<rect x="388.1" y="43.5" class="st446" width="10" height="5.3"/>
	<rect x="388.9" y="43.5" class="st447" width="10" height="5.3"/>
	<rect x="389.7" y="43.5" class="st448" width="10" height="5.3"/>
	<rect x="390.6" y="43.5" class="st449" width="10" height="5.3"/>
	<rect x="391.4" y="43.5" class="st450" width="10" height="5.3"/>
	<rect x="392.2" y="43.5" class="st451" width="10" height="5.3"/>
	<rect x="393.1" y="43.5" class="st452" width="10" height="5.3"/>
	<rect x="393.9" y="43.5" class="st453" width="10" height="5.3"/>
	<rect x="394.7" y="43.5" class="st454" width="10" height="5.3"/>
	<polygon points="9.5,6.2 9.5,10.7 19.5,10.7 19.5,16.5 9.5,16.5 9.5,26.5 2.8,26.5 2.8,0.5 24.3,0.5 24.3,6.2 	"/>
	<polygon points="50.8,26.5 28.2,26.5 28.2,0.5 50.5,0.5 49.7,6.2 34.8,6.2 34.8,10.3 45.1,10.3 45.1,16.1 34.8,16.1 34.8,20.7 
		50.1,20.7 	"/>
	<path d="M78.1,14.9c0.7,1.2,1,2.5,1,3.9c0,2.3-0.8,4.2-2.5,5.6c-1.7,1.4-4,2.1-7,2.1h-15v-26h14c2.7,0,4.8,0.7,6.2,2
		c1.4,1.3,2.1,3,2.1,5.1c0,2-0.7,3.6-2.2,4.7C76.2,12.8,77.4,13.7,78.1,14.9 M61.1,6v4.6h6.7c0.7,0,1.3-0.2,1.8-0.6
		c0.5-0.4,0.7-1,0.7-1.7c0-1.5-0.9-2.3-2.7-2.3H61.1z M72.4,18.5c0-0.8-0.2-1.4-0.7-1.8c-0.5-0.4-1.2-0.7-2-0.7h-8.6v5h8
		C71.3,21,72.4,20.1,72.4,18.5"/>
	<path d="M94.8,17h-5.1v9.5h-6.6v-26h14.8c1.8,0,3.4,0.4,4.7,1.1c1.3,0.7,2.3,1.7,3,3c0.7,1.3,1,2.6,1,4.2c0,1.7-0.4,3.3-1.3,4.6
		c-0.9,1.4-2.1,2.3-3.7,2.9l7.1,10.1h-7.6L94.8,17z M89.7,11.3h7.4c0.9,0,1.6-0.2,2.1-0.7c0.5-0.5,0.8-1.1,0.8-1.8
		c0-0.7-0.3-1.3-0.8-1.8c-0.5-0.5-1.2-0.7-2.1-0.7h-7.4V11.3z"/>
	<path d="M116.7,25.6c-1.8-0.9-3.2-2.1-4.2-3.7c-1-1.6-1.5-3.5-1.5-5.7V0.5h6.7v15c0,1.8,0.5,3.1,1.4,4c0.9,0.9,2.3,1.4,4.1,1.4
		c1.8,0,3.2-0.5,4.1-1.4c0.9-0.9,1.4-2.2,1.4-4v-15h6.7v15.7c0,2.2-0.5,4.1-1.5,5.7c-1,1.6-2.4,2.9-4.2,3.7c-1.8,0.9-4,1.3-6.5,1.3
		C120.6,26.9,118.5,26.5,116.7,25.6"/>
	<path d="M156.6,21.2h-10.9l-1.9,5.3h-6.9l10.2-26h8.2l10.2,26h-6.9L156.6,21.2z M154.6,15.6l-3.4-9.2l-3.4,9.2H154.6z"/>
	<path d="M180.1,17H175v9.5h-6.6v-26h14.8c1.8,0,3.4,0.4,4.7,1.1c1.3,0.7,2.3,1.7,3,3c0.7,1.3,1,2.6,1,4.2c0,1.7-0.4,3.3-1.3,4.6
		c-0.9,1.4-2.1,2.3-3.7,2.9l7.1,10.1h-7.6L180.1,17z M175,11.3h7.4c0.9,0,1.6-0.2,2.1-0.7c0.5-0.5,0.8-1.1,0.8-1.8
		c0-0.7-0.3-1.3-0.8-1.8c-0.5-0.5-1.2-0.7-2.1-0.7H175V11.3z"/>
	<polygon points="209.9,17.8 209.9,26.5 203.2,26.5 203.2,17.8 192.8,0.5 200.3,0.5 206.6,11.5 212.8,0.5 220.1,0.5 	"/>
	<path d="M230.7,3.9c3-2.6,6.7-3.9,11.1-3.9c2.1,0,4,0.3,5.6,1c1.6,0.7,2.8,1.6,3.7,2.9c0.9,1.2,1.3,2.7,1.3,4.3
		c0,1.6-0.4,3-1.2,4.2c-0.8,1.1-1.7,2.1-2.8,2.7c-1.1,0.7-2.5,1.5-4.3,2.3c-1.4,0.7-2.5,1.2-3.3,1.7c-0.8,0.4-1.5,1-2.1,1.5h14v5.8
		h-22.3v-1.7c0-2.1,0.5-3.9,1.4-5.3c0.9-1.4,2.1-2.6,3.4-3.4c1.3-0.8,3-1.7,5-2.7c1.3-0.6,2.3-1.1,3-1.5c0.7-0.4,1.3-0.9,1.8-1.4
		c0.5-0.5,0.7-1.1,0.7-1.8c0-0.8-0.4-1.4-1.1-1.9c-0.8-0.5-1.8-0.8-3-0.8c-1.2,0-2.4,0.2-3.6,0.7c-1.2,0.5-2.3,1.1-3.3,2L230.7,3.9z
		"/>
	<path d="M276.3,13.5c1,1.4,1.5,3,1.5,4.7c0,1.6-0.4,3-1.2,4.4c-0.8,1.3-2.1,2.4-3.8,3.2c-1.7,0.8-3.8,1.2-6.3,1.2
		c-2.4,0-4.7-0.4-6.8-1.1c-2.2-0.7-3.9-1.7-5.2-2.9l3.6-4.9c1.2,1,2.5,1.7,3.9,2.3c1.4,0.5,2.8,0.8,4.3,0.8c1.5,0,2.7-0.3,3.5-0.8
		c0.8-0.5,1.2-1.2,1.2-2c0-0.8-0.4-1.4-1.1-2c-0.7-0.5-1.8-0.8-3.1-0.8c-0.7,0-1.4,0.1-2,0.2c-0.6,0.2-1.1,0.3-1.4,0.5l-2.7-3l7.9-7
		h-12.3V0.5h20.1v5.4l-5.4,4.7C273.5,11,275.3,12,276.3,13.5"/>
	<path d="M319,26.1v0.3h-7.6l-1.7-1.5c-2.2,1.3-4.8,2-7.7,2c-2.1,0-4-0.3-5.7-1c-1.7-0.7-3-1.6-3.9-2.8c-0.9-1.2-1.4-2.6-1.4-4.1
		c0-2.8,1.7-4.9,5-6.5c-0.8-0.7-1.4-1.6-1.9-2.5c-0.5-1-0.7-2-0.7-3c0-1.3,0.4-2.5,1.1-3.6c0.8-1.1,1.8-1.9,3.2-2.5
		c1.3-0.6,2.9-0.9,4.6-0.9c1.7,0,3.3,0.3,4.6,0.9c1.3,0.6,2.4,1.4,3.2,2.5c0.8,1.1,1.1,2.3,1.1,3.6c0,2.8-1.8,5.1-5.3,7l3.5,3.3
		c0.7-1.3,1.1-2.8,1.2-4.5h6c-0.1,1.5-0.3,2.9-0.8,4.4c-0.5,1.5-1.1,2.8-2,4.1L319,26.1z M305.4,21.1l-5.8-5.3c-1.3,0.7-2,1.6-2,2.8
		c0,1,0.5,1.8,1.4,2.3c0.9,0.5,2,0.8,3.3,0.8C303.4,21.7,304.5,21.5,305.4,21.1 M300.3,5.5c-0.5,0.4-0.8,0.9-0.8,1.6
		c0,0.4,0.1,0.8,0.4,1.1c0.3,0.4,0.6,0.8,1.2,1.3l1.2,1.1c1-0.5,1.8-0.9,2.3-1.5c0.5-0.5,0.7-1.1,0.7-1.8c0-0.7-0.3-1.3-0.8-1.8
		c-0.5-0.4-1.2-0.7-2.1-0.7C301.6,4.9,300.9,5.1,300.3,5.5"/>
	<path d="M328.4,3.9c3-2.6,6.7-3.9,11.1-3.9c2.1,0,4,0.3,5.6,1c1.6,0.7,2.8,1.6,3.7,2.9c0.9,1.2,1.3,2.7,1.3,4.3
		c0,1.6-0.4,3-1.2,4.2c-0.8,1.1-1.7,2.1-2.8,2.7c-1.1,0.7-2.5,1.5-4.3,2.3c-1.4,0.7-2.5,1.2-3.3,1.7c-0.8,0.4-1.5,1-2.1,1.5h14v5.8
		h-22.3v-1.7c0-2.1,0.5-3.9,1.4-5.3c0.9-1.4,2.1-2.6,3.4-3.4c1.3-0.8,3-1.7,5-2.7c1.3-0.6,2.3-1.1,3-1.5c0.7-0.4,1.3-0.9,1.8-1.4
		c0.5-0.5,0.7-1.1,0.7-1.8c0-0.8-0.4-1.4-1.1-1.9c-0.8-0.5-1.8-0.8-3-0.8c-1.2,0-2.4,0.2-3.6,0.7c-1.2,0.5-2.3,1.1-3.3,2L328.4,3.9z
		"/>
	<path d="M376.8,21.4h-3.6v5.1h-6.5v-5.1h-14.4v-5.2l12.8-15.7h8v15.3h3.6V21.4z M366.8,15.7V7l-7,8.7H366.8z"/>
	<path d="M2.1,60.7c1.3-1.2,2.8-2.1,4.5-2.8c1.7-0.7,3.5-1,5.5-1c1.8,0,3.3,0.3,4.7,0.9c1.4,0.6,2.4,1.5,3.2,2.6
		c0.8,1.1,1.1,2.4,1.1,3.8c0,1.5-0.4,2.8-1.2,3.9c-0.8,1.1-1.8,2-3,2.8s-2.7,1.7-4.7,2.7C10.4,74.5,9,75.3,8,76
		c-1.1,0.7-2,1.5-2.7,2.4c-0.8,0.9-1.2,1.9-1.3,3h17.7v1.9h-20v-1.2c0-1.6,0.4-3.1,1.3-4.3c0.9-1.2,1.9-2.2,3.2-3.1
		C7.4,74,9,73.1,11,72c1.8-0.9,3.2-1.7,4.2-2.4c1-0.7,1.9-1.4,2.6-2.3c0.7-0.9,1-1.9,1-3c0-1.6-0.6-2.9-1.9-3.9
		c-1.3-1-2.9-1.5-4.9-1.5c-1.7,0-3.2,0.3-4.7,0.9c-1.5,0.6-2.7,1.4-3.8,2.4L2.1,60.7z"/>
	<path d="M30,82.2c-1.7-1.1-3-2.7-3.9-4.7c-0.9-2-1.4-4.4-1.4-7.1c0-2.7,0.5-5.1,1.4-7.1c0.9-2,2.2-3.6,3.9-4.7
		c1.7-1.1,3.6-1.7,5.9-1.7c2.2,0,4.2,0.6,5.9,1.7c1.7,1.1,3,2.7,3.9,4.7c0.9,2,1.4,4.4,1.4,7.1c0,2.7-0.5,5.1-1.4,7.1
		c-0.9,2-2.2,3.6-3.9,4.7c-1.7,1.1-3.6,1.7-5.9,1.7C33.6,83.8,31.7,83.3,30,82.2 M40.6,80.5c1.3-0.9,2.4-2.3,3.1-4
		c0.7-1.7,1.1-3.8,1.1-6.1c0-2.3-0.4-4.4-1.1-6.1c-0.7-1.7-1.8-3.1-3.1-4c-1.3-0.9-2.9-1.4-4.7-1.4c-1.8,0-3.3,0.5-4.7,1.4
		c-1.3,0.9-2.4,2.3-3.1,4C27.3,66,27,68,27,70.4c0,2.3,0.4,4.4,1.1,6.1c0.7,1.7,1.8,3.1,3.1,4c1.3,0.9,2.9,1.4,4.7,1.4
		C37.7,81.9,39.2,81.4,40.6,80.5"/>
	<path d="M50.3,60.7c1.3-1.2,2.8-2.1,4.5-2.8c1.7-0.7,3.5-1,5.5-1c1.8,0,3.3,0.3,4.7,0.9c1.4,0.6,2.4,1.5,3.2,2.6
		c0.8,1.1,1.1,2.4,1.1,3.8c0,1.5-0.4,2.8-1.2,3.9c-0.8,1.1-1.8,2-3,2.8s-2.7,1.7-4.7,2.7c-1.7,0.9-3.1,1.7-4.2,2.4
		c-1.1,0.7-2,1.5-2.7,2.4c-0.8,0.9-1.2,1.9-1.3,3h17.7v1.9h-20v-1.2c0-1.6,0.4-3.1,1.3-4.3c0.9-1.2,1.9-2.2,3.2-3.1
		c1.2-0.8,2.9-1.8,4.9-2.9c1.8-0.9,3.2-1.7,4.2-2.4c1-0.7,1.9-1.4,2.6-2.3c0.7-0.9,1-1.9,1-3c0-1.6-0.6-2.9-1.9-3.9
		c-1.3-1-2.9-1.5-4.9-1.5c-1.7,0-3.2,0.3-4.7,0.9c-1.5,0.6-2.7,1.4-3.8,2.4L50.3,60.7z"/>
	<path d="M73.8,60.7c1.3-1.2,2.8-2.1,4.5-2.8c1.7-0.7,3.5-1,5.5-1c1.8,0,3.3,0.3,4.7,0.9c1.4,0.6,2.4,1.5,3.2,2.6
		c0.8,1.1,1.1,2.4,1.1,3.8c0,1.5-0.4,2.8-1.2,3.9c-0.8,1.1-1.8,2-3,2.8s-2.7,1.7-4.7,2.7c-1.7,0.9-3.1,1.7-4.2,2.4
		c-1.1,0.7-2,1.5-2.7,2.4c-0.8,0.9-1.2,1.9-1.3,3h17.7v1.9h-20v-1.2c0-1.6,0.4-3.1,1.3-4.3c0.9-1.2,1.9-2.2,3.2-3.1
		c1.2-0.8,2.9-1.8,4.9-2.9c1.8-0.9,3.2-1.7,4.2-2.4c1-0.7,1.9-1.4,2.6-2.3c0.7-0.9,1-1.9,1-3c0-1.6-0.6-2.9-1.9-3.9
		c-1.3-1-2.9-1.5-4.9-1.5c-1.7,0-3.2,0.3-4.7,0.9c-1.5,0.6-2.7,1.4-3.8,2.4L73.8,60.7z"/>
</g>
<g>
	<defs>
		<rect id="SVGID_1_" x="124" y="126.1" width="156.4" height="51.3"/>
	</defs>
	<clipPath id="SVGID_2_">
		<use xlink:href="#SVGID_1_"  style="overflow:visible;"/>
	</clipPath>
	<path class="st455" d="M156.2,163.4c-1.8-1.3-3.9-1.8-5.9-1.7c-2,0.1-2.9,1.6-2.9,1.6c-0.9-1.6-2.7-2.5-5.4-2.5
		c-4.4,0.1-8.8,2.1-12.3,2.1c-3.3,0-5.8-2.1-5.7-5.8c0.1-6.5,5.7-12.4,9.8-15.1c2.4-1.5,4.4-2,5.7-1.8c0.9,0.1,2.1,1.2,1.4,2.8
		c-1.1,2.4-2.5,2.2-2.5,1c0-0.7,0.5-1.2,0.9-1.4c0.2-0.2,0.6-0.2,0.9-0.2c0.2-0.2,0.4-1.5-1.3-1c-1.7,0.4-3.7,2.1-5.7,4.2
		c-2,2.2-5,6.2-5.7,10.5c-0.3,2-0.1,5.6,4.6,5.6c4,0,9.9-2.7,15.3-2.6c2.1,0,3.9,0.6,5.3,1.5C153.9,161.3,155.6,162.6,156.2,163.4
		 M157.5,151.6h0.8c0,0-4.1,5.9-6.4,5.7c-1.3-0.2-0.9-1.7-0.9-1.7s-1.8,2.1-3.5,1.7c-1.5-0.4-0.5-2.9-0.5-2.9
		c-0.2,0.1-3.4,3.8-5.7,2.9c-2.4-0.9-1.2-4-0.7-4.9c0.4-0.8,0.8-1.5,0.8-1.5s-0.4,0.1-0.6,0.2c-0.2,0.1-0.6,0.1-0.6,0.1
		s-1.1,1.8-1.8,2.8c-0.7,0.9-3.6,4.1-5.4,3.5c-1.7-0.6-1.3-3.1-0.3-5c1.6-3.1,5.4-7,7.6-6.4c2.3,0.6,0.4,4.3,0.4,4.3
		s0.5,0.1,1.5-0.7c1.6-1.1,3.6-4,5.9-3.6c1.1,0.2,2,1.2,0.7,3.3c-0.4,0.7-1.2,1.3-1.7,0.7c-0.3-0.4,0-1,0.3-1.5
		c0.5-0.6,1.2-0.6,1.2-0.6s0.4-0.9-0.6-0.8c-0.8,0-2.7,1.8-3.8,3.6c-1,1.7-2.5,4.5-1,5.1c1.4,0.6,4.1-2.6,5.3-4.2
		c1.2-1.7,4-5.4,6.4-5.6c0.8-0.1,1.3,0.7,1.3,0.7l0.3-0.4l2.3,0c0,0-4.4,7.4-4.8,8c-0.3,0.4-0.6,1.4,0.4,0.9
		C155.4,154.3,157.5,151.6,157.5,151.6 M139.3,150.8c0,0-0.6-0.2-1.2-0.6c-0.6-0.4-0.8-0.9-0.9-1c0,0,0,0-0.1,0c0,0-0.1,0.2-1,1.4
		c-0.8,1.2-2.1,3.7-0.9,4.2c0.7,0.3,2-1,2.7-1.9c0.6-0.8,1.4-2,1.4-2.1C139.3,150.9,139.3,150.8,139.3,150.8 M140.2,146.9
		c-0.6-0.5-2.2,0.6-2.2,1.7c0,1.1,1.4,1.5,1.6,1.5c0,0,0.2,0,0.2-0.1c0-0.1,0.2-0.4,0.5-1C140.5,148.4,140.8,147.3,140.2,146.9
		 M152.2,153.1c1-1.3,3.6-5.9,3.6-5.9s0-0.3-0.3-0.3c-0.4,0-1,0.1-2.2,1.6c-1.2,1.5-2.1,2.7-2.8,3.9c-0.7,1.4-1.1,2.3-0.6,2.6
		c0.1,0.1,0.3,0.1,0.4,0c0.3-0.1,0.6-0.3,1.1-0.9C151.6,153.8,151.8,153.5,152.2,153.1 M162.7,146l-2.2,0l-1.3,2l2.2,0L162.7,146z
		 M195.7,142.4c-1.7,1.1-3.9,2-6.1,1.8c-0.6,0.6-1.2,1.2-1.7,2c3.8,0.8,7.1-1.6,8.9-3.6c1.1-1.3,1.7-2.4,1.7-2.4
		S197.3,141.3,195.7,142.4 M189.1,159.7c-0.3,0.5-0.7,1.5,0.4,0.9c1.3-0.7,3.1-3.5,3.1-3.5h0.8c0,0-1.1,1.7-2.5,3.3
		c-1.3,1.4-2.9,2.7-4,2.6c-1.3-0.1-0.9-1.8-0.9-1.8s-1.9,2-3.1,1.8c-1.7-0.2-1.2-2.3-1.2-2.3s-2,2.4-3.3,2.3c-2.1-0.1-1.6-2.7-1-4.4
		c0.3-1,0.6-1.7,0.6-1.7s-0.2,0.1-0.7,0.1c-0.2,0-0.7,0.1-0.7,0.1s-0.9,1.5-1.6,2.5c-0.7,0.9-3.7,4.1-5.4,3.5
		c-1.6-0.6-1.1-3.1-0.1-5c1.4-2.9,5.2-6.9,7.4-6.4c2.3,0.6,0.1,4.7,0.1,4.7s0,0,0,0c0,0,0.2,0,0.4,0c0.4-0.1,0.8-0.3,0.8-0.3
		s2.3-4.8,4.9-8c2.6-3.2,7.6-8.6,9.6-7.3c0.5,0.3,0.3,1.4-0.4,2.8c-0.3,0.1-0.6,0.2-0.9,0.2c0.4-0.8,0.7-1.5,0.8-1.9
		c0.3-1.6-3.5,1.8-6.2,5.5c-2.7,3.7-4.4,7.1-4.4,7.1s0.6-0.3,1.4-1c0.9-0.7,2.1-1.9,3.5-3.2c0.9-0.9,2-2.1,2.9-3.4
		c0.3,0,0.6,0,0.9-0.1c-1.1,1.5-2.3,2.8-3.3,3.8c-1.1,1.1-2.3,2.3-3.3,3.1c-1.6,1.4-2.9,2.1-2.9,2.1s-2.4,4.8-1.1,5.1
		c0.8,0.2,2.3-2.1,2.3-2.1s2-3,3.1-4.3c1.6-1.8,3-2.9,4.4-2.9c0.8,0,1.3,0.8,1.3,0.8l0.4-0.6l2.3,0
		C193.9,151.7,189.5,159.1,189.1,159.7 M175.9,156.7c0,0-0.5-0.2-1.1-0.7c-0.5-0.4-0.8-0.9-0.8-1c0,0,0,0-0.1,0c0,0-0.1,0.1-1,1.3
		c-0.8,1.2-2.1,3.8-1,4.2c0.7,0.3,2-1,2.7-1.9c0.6-0.8,1.2-1.8,1.2-1.9C176,156.8,176,156.7,175.9,156.7 M177.1,154.6
		c0.2-0.6,0.5-1.7-0.1-2.1c-0.6-0.5-2.2,0.6-2.2,1.7c0,1.1,1.1,1.7,1.4,1.7c0.2,0,0.2,0,0.3-0.1
		C176.5,155.8,176.9,155.2,177.1,154.6 M190.6,153.1c0-0.1,0.1-0.2,0.1-0.2s0-0.3-0.4-0.3c-0.4,0-0.9,0.1-2.2,1.5
		c-1.3,1.4-2.1,2.7-2.8,3.9c-0.7,1.4-1,2.4-0.6,2.6c0.1,0.1,0.3,0.1,0.4,0c0.3-0.1,0.6-0.3,1.1-0.9c0.2-0.3,0.5-0.7,0.8-1.1
		C188,157.5,190.2,153.8,190.6,153.1 M195.7,142.4c-1.7,1.1-3.9,2-6.1,1.8c-0.6,0.6-1.2,1.2-1.7,2c3.8,0.8,7.1-1.6,8.9-3.6
		c1.1-1.3,1.7-2.4,1.7-2.4S197.3,141.3,195.7,142.4 M185,145.1c-1.8-0.9-3.1-2.1-4.5-2.8c-1.3-0.7-2.2-1-3.2-0.8
		c-0.2,0-0.4,0.1-0.4,0.1s0.5,1.9-1.6,5c-2.2,3.2-4.2,3.1-4.7,2.3c-0.6-0.9,0.2-2.8,1.5-4.5c1.3-1.7,3.7-3.2,3.7-3.2
		s-0.8-0.5-2.6,0.6c-1.8,1-4.9,3.4-7.8,7.5c-2.9,4.1-3.4,6.3-3.8,8.1c-0.4,1.8,0,3.7,1.9,3.7c2,0,4.2-3,4.9-4c1.2-1.9,2-4.9,0.3-4.5
		c-0.8,0.2-1.5,1.1-1.9,1.9c-0.4,0.9-0.6,1.7-0.6,1.7s-0.7,0.2-1.6,0.9c-0.9,0.7-1.5,1.3-1.5,1.3s0-1.4,1.1-3.7
		c1.1-2.3,3.2-3.3,4.4-3.4c1.1-0.1,2.4,0.8,1.3,4.1c-1.2,3.3-4.6,7.3-8.2,7.4c-3.3,0-5.5-4.2-0.9-11.6c5.1-8.2,11.1-10.7,13.1-11
		c2-0.3,2.6,0.6,2.6,0.6s1.6-0.8,3.7-0.6c2.4,0.2,4.2,1.8,6.7,3C186.1,143.9,185.5,144.5,185,145.1 M176.1,141.9c0,0-1.4,0.6-3,2.3
		c-1.6,1.8-2.6,3.8-1.9,4.3c0.3,0.2,0.9,0.2,2-0.8c0.9-0.8,1.8-1.8,2.4-3.3C176.3,142.7,176.1,141.9,176.1,141.9"/>
	<rect x="202.5" y="126.1" class="st455" width="0.6" height="51.3"/>
	<polygon class="st455" points="218.3,149.3 211.5,149.3 211.5,140.1 212.8,140.1 212.8,148.1 218.3,148.1 	"/>
	<path class="st455" d="M221.1,146.8l-1,2.4h-1.3l3.8-9.2h1.6l3.8,9.2h-1.4l-1-2.4H221.1z M223.4,141.2l-1.8,4.5h3.7L223.4,141.2z"
		/>
	<polygon class="st455" points="231.3,141.2 231.3,149.3 230,149.3 230,141.2 226.8,141.2 226.8,140.1 234.5,140.1 234.5,141.2 	"/>
	<path class="st455" d="M235.7,146.8l-1,2.4h-1.3l3.8-9.2h1.6l3.8,9.2h-1.4l-1-2.4H235.7z M237.9,141.2l-1.8,4.5h3.7L237.9,141.2z"
		/>
	<polygon class="st455" points="252.4,149.3 252.4,141.6 248.9,149.1 248,149.1 244.6,141.8 244.6,149.3 243.4,149.3 243.4,140.1 
		245.1,140.1 248.5,147.4 251.9,140.1 253.6,140.1 253.6,149.3 	"/>
	<polygon class="st455" points="216.1,161.9 211,161.9 211,161.2 214.9,156.4 211.2,156.4 211.2,155.7 216,155.7 216,156.4 
		212.1,161.1 216.1,161.1 	"/>
	<path class="st455" d="M217.7,159.9c0.1,0.4,0.3,0.8,0.6,1c0.3,0.3,0.7,0.4,1.2,0.4c0.6,0,1.1-0.2,1.5-0.6l0.5,0.6
		c-0.2,0.2-0.5,0.4-0.8,0.5c-0.3,0.1-0.7,0.2-1.2,0.2c-0.5,0-1-0.1-1.4-0.3c-0.4-0.2-0.7-0.5-0.9-0.9c-0.2-0.4-0.3-0.8-0.3-1.3
		c0-0.5,0.1-0.9,0.3-1.2c0.2-0.4,0.5-0.7,0.9-0.9s0.8-0.3,1.3-0.3c0.5,0,0.9,0.1,1.3,0.3c0.4,0.2,0.6,0.5,0.8,0.9
		c0.2,0.4,0.3,0.8,0.3,1.2c0,0.1,0,0.2,0,0.3H217.7z M217.7,159.2h3.2c-0.1-0.4-0.2-0.7-0.5-1s-0.6-0.4-1.1-0.4
		c-0.4,0-0.8,0.1-1,0.4C218,158.4,217.8,158.8,217.7,159.2"/>
	<path class="st455" d="M225.5,158c-0.2,0-0.3-0.1-0.5-0.1c-0.5,0-0.8,0.1-1.1,0.4c-0.3,0.2-0.4,0.6-0.4,1v2.6h-0.8v-4.7h0.8v0.7
		c0.2-0.3,0.4-0.5,0.7-0.6c0.3-0.1,0.6-0.2,0.9-0.2c0.2,0,0.3,0,0.5,0.1V158z"/>
	<path class="st455" d="M226.2,160.8c-0.2-0.4-0.3-0.8-0.3-1.2c0-0.5,0.1-0.9,0.3-1.2c0.2-0.4,0.5-0.7,0.9-0.9
		c0.4-0.2,0.8-0.3,1.3-0.3c0.5,0,0.9,0.1,1.3,0.3c0.4,0.2,0.7,0.5,0.9,0.9c0.2,0.4,0.3,0.8,0.3,1.2c0,0.5-0.1,0.9-0.3,1.2
		c-0.2,0.4-0.5,0.7-0.9,0.9c-0.4,0.2-0.8,0.3-1.3,0.3c-0.5,0-0.9-0.1-1.3-0.3C226.7,161.5,226.4,161.2,226.2,160.8 M229.9,160.4
		c0.1-0.3,0.2-0.5,0.2-0.9c0-0.3-0.1-0.6-0.2-0.9c-0.1-0.3-0.3-0.5-0.6-0.6c-0.3-0.1-0.5-0.2-0.9-0.2c-0.3,0-0.6,0.1-0.8,0.2
		c-0.3,0.1-0.5,0.3-0.6,0.6c-0.1,0.3-0.2,0.5-0.2,0.9c0,0.3,0.1,0.6,0.2,0.9c0.1,0.3,0.3,0.5,0.6,0.6c0.3,0.1,0.5,0.2,0.8,0.2
		c0.3,0,0.6-0.1,0.9-0.2C229.5,160.9,229.7,160.7,229.9,160.4"/>
	<path class="st455" d="M234.4,156c0-0.1,0.1-0.3,0.2-0.4c0.1-0.1,0.2-0.1,0.4-0.1s0.3,0,0.4,0.1c0.1,0.1,0.2,0.2,0.2,0.4
		c0,0.1-0.1,0.3-0.2,0.4c-0.1,0.1-0.2,0.1-0.4,0.1s-0.3,0-0.4-0.1C234.4,156.3,234.4,156.1,234.4,156 M235.3,161.9h-0.8v-4.7h0.8
		V161.9z"/>
	<path class="st455" d="M238.5,161.2c0.4,0,0.6-0.1,0.9-0.2c0.2-0.1,0.3-0.3,0.3-0.5c0-0.1-0.1-0.3-0.2-0.4
		c-0.1-0.1-0.3-0.1-0.5-0.2l-1.2-0.2c-0.5-0.1-0.8-0.2-1-0.5c-0.2-0.2-0.3-0.5-0.3-0.8c0-0.3,0.1-0.5,0.2-0.7
		c0.2-0.2,0.4-0.4,0.7-0.5c0.3-0.1,0.7-0.2,1.1-0.2c0.4,0,0.7,0.1,1.1,0.1c0.3,0.1,0.7,0.3,1,0.5l-0.4,0.6c-0.2-0.2-0.4-0.3-0.7-0.4
		c-0.3-0.1-0.6-0.1-0.9-0.1c-0.3,0-0.6,0.1-0.8,0.2c-0.2,0.1-0.3,0.3-0.3,0.5c0,0.1,0.1,0.2,0.2,0.3c0.1,0.1,0.3,0.2,0.6,0.2
		l1.2,0.2c0.5,0.1,0.8,0.2,1,0.5c0.2,0.2,0.3,0.5,0.3,0.8c0,0.3-0.1,0.5-0.3,0.8c-0.2,0.2-0.4,0.4-0.7,0.5c-0.3,0.1-0.7,0.2-1.1,0.2
		c-0.4,0-0.8-0.1-1.2-0.2c-0.4-0.1-0.8-0.3-1-0.5l0.4-0.6c0.2,0.2,0.5,0.3,0.8,0.4C237.8,161.2,238.1,161.2,238.5,161.2"/>
	<path class="st455" d="M248.6,158.3c0.2,0.4,0.3,0.8,0.3,1.2c0,0.5-0.1,0.9-0.3,1.2c-0.2,0.4-0.5,0.7-0.8,0.9
		c-0.4,0.2-0.8,0.3-1.2,0.3c-0.4,0-0.7-0.1-1-0.2c-0.3-0.1-0.5-0.3-0.7-0.6v2.3H244v-6.2h0.8v0.8c0.2-0.3,0.5-0.5,0.8-0.7
		c0.3-0.2,0.7-0.2,1-0.2c0.5,0,0.9,0.1,1.2,0.3C248.2,157.6,248.4,157.9,248.6,158.3 M247.9,160.4c0.1-0.3,0.2-0.5,0.2-0.9
		c0-0.3-0.1-0.6-0.2-0.9c-0.1-0.3-0.3-0.5-0.6-0.6c-0.2-0.1-0.5-0.2-0.8-0.2c-0.3,0-0.6,0.1-0.8,0.2c-0.3,0.1-0.5,0.3-0.6,0.6
		c-0.2,0.3-0.2,0.6-0.2,0.9c0,0.3,0.1,0.6,0.2,0.9c0.2,0.3,0.4,0.5,0.6,0.6c0.3,0.1,0.5,0.2,0.8,0.2c0.3,0,0.6-0.1,0.8-0.2
		C247.6,160.9,247.8,160.7,247.9,160.4"/>
	<path class="st455" d="M249.9,160.8c-0.2-0.4-0.3-0.8-0.3-1.2c0-0.5,0.1-0.9,0.3-1.2c0.2-0.4,0.5-0.7,0.9-0.9
		c0.4-0.2,0.8-0.3,1.3-0.3c0.5,0,0.9,0.1,1.3,0.3c0.4,0.2,0.7,0.5,0.9,0.9c0.2,0.4,0.3,0.8,0.3,1.2c0,0.5-0.1,0.9-0.3,1.2
		c-0.2,0.4-0.5,0.7-0.9,0.9c-0.4,0.2-0.8,0.3-1.3,0.3c-0.5,0-0.9-0.1-1.3-0.3C250.4,161.5,250.1,161.2,249.9,160.8 M253.6,160.4
		c0.1-0.3,0.2-0.5,0.2-0.9c0-0.3-0.1-0.6-0.2-0.9c-0.1-0.3-0.3-0.5-0.6-0.6c-0.3-0.1-0.5-0.2-0.8-0.2c-0.3,0-0.6,0.1-0.9,0.2
		c-0.3,0.1-0.5,0.3-0.6,0.6c-0.1,0.3-0.2,0.5-0.2,0.9c0,0.3,0.1,0.6,0.2,0.9c0.1,0.3,0.3,0.5,0.6,0.6c0.3,0.1,0.5,0.2,0.9,0.2
		c0.3,0,0.6-0.1,0.8-0.2C253.2,160.9,253.4,160.7,253.6,160.4"/>
	<path class="st455" d="M257.5,161.2c0.4,0,0.6-0.1,0.9-0.2c0.2-0.1,0.3-0.3,0.3-0.5c0-0.1-0.1-0.3-0.2-0.4
		c-0.1-0.1-0.3-0.1-0.5-0.2l-1.2-0.2c-0.5-0.1-0.8-0.2-1-0.5c-0.2-0.2-0.3-0.5-0.3-0.8c0-0.3,0.1-0.5,0.2-0.7
		c0.2-0.2,0.4-0.4,0.7-0.5c0.3-0.1,0.7-0.2,1.1-0.2c0.4,0,0.7,0.1,1.1,0.1c0.3,0.1,0.7,0.3,1,0.5l-0.4,0.6c-0.2-0.2-0.4-0.3-0.7-0.4
		c-0.3-0.1-0.6-0.1-0.9-0.1c-0.3,0-0.6,0.1-0.8,0.2c-0.2,0.1-0.3,0.3-0.3,0.5c0,0.1,0.1,0.2,0.2,0.3c0.1,0.1,0.3,0.2,0.6,0.2
		l1.2,0.2c0.5,0.1,0.8,0.2,1,0.5c0.2,0.2,0.3,0.5,0.3,0.8c0,0.3-0.1,0.5-0.3,0.8c-0.2,0.2-0.4,0.4-0.7,0.5c-0.3,0.1-0.7,0.2-1.1,0.2
		c-0.4,0-0.8-0.1-1.2-0.2c-0.4-0.1-0.8-0.3-1-0.5l0.4-0.6c0.2,0.2,0.5,0.3,0.8,0.4C256.8,161.2,257.1,161.2,257.5,161.2"/>
	<path class="st455" d="M262.3,161.2c0.4,0,0.6-0.1,0.9-0.2c0.2-0.1,0.3-0.3,0.3-0.5c0-0.1-0.1-0.3-0.2-0.4
		c-0.1-0.1-0.3-0.1-0.5-0.2l-1.2-0.2c-0.5-0.1-0.8-0.2-1-0.5c-0.2-0.2-0.3-0.5-0.3-0.8c0-0.3,0.1-0.5,0.2-0.7
		c0.2-0.2,0.4-0.4,0.7-0.5c0.3-0.1,0.7-0.2,1.1-0.2c0.4,0,0.7,0.1,1.1,0.1c0.3,0.1,0.7,0.3,1,0.5l-0.4,0.6c-0.2-0.2-0.4-0.3-0.7-0.4
		c-0.3-0.1-0.6-0.1-0.9-0.1c-0.3,0-0.6,0.1-0.8,0.2c-0.2,0.1-0.3,0.3-0.3,0.5c0,0.1,0.1,0.2,0.2,0.3c0.1,0.1,0.3,0.2,0.6,0.2
		l1.2,0.2c0.5,0.1,0.8,0.2,1,0.5c0.2,0.2,0.3,0.5,0.3,0.8c0,0.3-0.1,0.5-0.3,0.8c-0.2,0.2-0.4,0.4-0.7,0.5c-0.3,0.1-0.7,0.2-1.1,0.2
		c-0.4,0-0.8-0.1-1.2-0.2c-0.4-0.1-0.8-0.3-1-0.5l0.4-0.6c0.2,0.2,0.5,0.3,0.8,0.4C261.6,161.2,261.9,161.2,262.3,161.2"/>
	<path class="st455" d="M265.2,156c0-0.1,0.1-0.3,0.2-0.4c0.1-0.1,0.2-0.1,0.4-0.1c0.2,0,0.3,0,0.4,0.1c0.1,0.1,0.2,0.2,0.2,0.4
		c0,0.1-0.1,0.3-0.2,0.4c-0.1,0.1-0.2,0.1-0.4,0.1c-0.2,0-0.3,0-0.4-0.1C265.2,156.3,265.2,156.1,265.2,156 M266.1,161.9h-0.8v-4.7
		h0.8V161.9z"/>
	<path class="st455" d="M272.1,158.3c0.2,0.4,0.3,0.8,0.3,1.2c0,0.5-0.1,0.9-0.3,1.2c-0.2,0.4-0.5,0.7-0.8,0.9
		c-0.4,0.2-0.8,0.3-1.2,0.3c-0.4,0-0.7-0.1-1-0.2s-0.6-0.4-0.8-0.7v0.8h-0.8v-6.5h0.8v2.5c0.2-0.3,0.4-0.5,0.7-0.6
		c0.3-0.1,0.6-0.2,1-0.2c0.5,0,0.9,0.1,1.2,0.3C271.6,157.6,271.9,157.9,272.1,158.3 M271.3,160.4c0.1-0.3,0.2-0.5,0.2-0.9
		c0-0.3-0.1-0.6-0.2-0.9c-0.1-0.3-0.3-0.5-0.6-0.6c-0.2-0.1-0.5-0.2-0.8-0.2c-0.3,0-0.6,0.1-0.8,0.2c-0.3,0.1-0.5,0.3-0.6,0.6
		c-0.2,0.3-0.2,0.6-0.2,0.9c0,0.3,0.1,0.6,0.2,0.9c0.2,0.3,0.4,0.5,0.6,0.6c0.3,0.1,0.5,0.2,0.8,0.2c0.3,0,0.6-0.1,0.8-0.2
		C271,160.9,271.2,160.7,271.3,160.4"/>
	<path class="st455" d="M274.2,160.8c0,0.1,0,0.3,0.1,0.3s0.2,0.1,0.3,0.1c0.1,0,0.2,0,0.4-0.1v0.7c-0.2,0.1-0.3,0.1-0.5,0.1
		c-0.3,0-0.6-0.1-0.8-0.3c-0.2-0.2-0.3-0.4-0.3-0.8v-5.5h0.8V160.8z"/>
	<path class="st455" d="M276.4,159.9c0.1,0.4,0.3,0.8,0.6,1c0.3,0.3,0.7,0.4,1.2,0.4c0.6,0,1.1-0.2,1.5-0.6l0.5,0.6
		c-0.2,0.2-0.5,0.4-0.8,0.5c-0.3,0.1-0.7,0.2-1.2,0.2c-0.5,0-1-0.1-1.4-0.3c-0.4-0.2-0.7-0.5-0.9-0.9c-0.2-0.4-0.3-0.8-0.3-1.3
		c0-0.5,0.1-0.9,0.3-1.2c0.2-0.4,0.5-0.7,0.9-0.9c0.4-0.2,0.8-0.3,1.3-0.3c0.5,0,0.9,0.1,1.3,0.3c0.4,0.2,0.6,0.5,0.8,0.9
		c0.2,0.4,0.3,0.8,0.3,1.2c0,0.1,0,0.2,0,0.3H276.4z M276.4,159.2h3.2c-0.1-0.4-0.2-0.7-0.5-1s-0.6-0.4-1.1-0.4
		c-0.4,0-0.8,0.1-1,0.4C276.6,158.4,276.4,158.8,276.4,159.2"/>
</g>
</svg>
