<?xml version="1.0" encoding="utf-8"?>
<!-- Generator: Adobe Illustrator 22.0.0, SVG Export Plug-In . SVG Version: 6.00 Build 0)  -->
<svg version="1.1" id="Capa_1" xmlns="http://www.w3.org/2000/svg" xmlns:xlink="http://www.w3.org/1999/xlink" x="0px" y="0px"
	 viewBox="0 0 184.1 92.9" style="enable-background:new 0 0 184.1 92.9;" xml:space="preserve">
<style type="text/css">
	.st0{fill:#0075C9;}
	.st1{fill:#231F20;}
	.st2{fill:#636569;}
</style>
<path class="st0" d="M59,17l15.8-0.5c0,0,3.2,4.3,3.5,4.8c0.7,1.2,0.3,2.7-1.1,3.2c-1.9,0.8-5.5,2-5.5,2L59,17z"/>
<path class="st0" d="M81.6,0l5.3,14.8c0,0-3.1,4.4-3.5,4.8c-0.9,1.1-2.4,1.1-3.3,0C78.8,18,76.5,15,76.5,15L81.6,0z"/>
<path class="st0" d="M104.4,17.1l-12.8,9.2c0,0-5.1-1.7-5.6-2c-1.2-0.5-1.7-2-0.9-3.3c1.1-1.7,3.5-4.7,3.5-4.7L104.4,17.1z"/>
<path class="st0" d="M95.9,43.4l-12.9-8.9c0,0,0-5.3,0-6c0.1-1.3,1.3-2.3,2.8-1.9c2,0.5,5.6,1.7,5.6,1.7L95.9,43.4z"/>
<path class="st0" d="M68.2,43.8l4-15.2c0,0,5.1-1.9,5.6-2c1.3-0.4,2.7,0.5,2.8,2c0.3,2,0.3,5.9,0.3,5.9L68.2,43.8z"/>
<path class="st1" d="M0,49c0-0.4,0.3-0.8,0.8-0.8h3.3c4.1,0,6.7,0.4,9.1,1.5c3.2,1.5,5.1,3.7,5.1,6.3c0,2.8-2.3,5.5-6,6.8
	c-2.4,0.8-4.5,1.2-8.5,1.2H0.8c-0.5,0-0.9-0.4-0.8-0.8v-0.3V49.3V49z M2,62.7C2,62.9,2.3,63,2.4,63h1.9c3.2,0,5.7-0.5,7.7-1.5
	c2.5-1.2,4.1-3.5,4.1-5.6c0-2.1-1.5-4.1-4.1-5.5C9.9,49.4,7.6,49,4.2,49H2.6c-0.3,0-0.4,0.1-0.4,0.3v13.5H2z"/>
<path class="st1" d="M25.5,56.2c-0.3,0-0.4,0.1-0.4,0.3v6.3c0,0.1,0.1,0.3,0.4,0.3h9.7c0.5,0,0.8,0,1.1-0.1c0.5-0.1,1.3-0.1,1.5,0.3
	c0.1,0.4,0,0.8-0.4,0.8H23.8c-0.5,0-0.9-0.4-0.8-0.8v-0.3V49.3V49c0-0.4,0.3-0.8,0.8-0.8h12.9c0.4,0,0.4,0.3,0.4,0.8
	c-0.1,0.4-0.9,0.4-1.5,0.3c-0.1,0-0.4,0-0.7,0h-9.6c-0.3,0-0.4,0.1-0.4,0.3v5.6c0,0.1,0.1,0.3,0.4,0.3h8.7c0.1,0,0.1,0,0.3,0
	c0.5,0,1.2,0,1.2,0.4v0.1c0,0.4-0.7,0.5-1.3,0.4h-0.3h-8.4V56.2z"/>
<path class="st1" d="M60.8,49.4v14.6c0,0,0,0.1-0.1,0.1c-0.9,0.5-2-0.4-2.7-1.1L44.2,50.3c-0.1-0.1-0.3,0-0.3,0v12.4
	c0,0.1,0,0.3,0.1,0.4c0.1,0.3,0.1,0.7-0.4,0.7h-0.9c-0.4,0-0.5-0.3-0.4-0.5c0.1-0.1,0.1-0.4,0.1-0.7V49.3V49c0-0.5,0.1-1.1,0.8-1.1
	c0.5,0,0.9,0,1.1,0.3l14.6,13.5c0.1,0.1,0.3,0,0.3-0.1V49.4c0-0.3,0-0.5-0.1-0.7c-0.1-0.3,0.1-0.5,0.5-0.5h0.5
	c0.5,0,0.7,0.4,0.5,0.8C60.8,49.1,60.8,49.3,60.8,49.4"/>
<path class="st1" d="M74.4,49.1v13.8c0,0.1,0,0.3,0,0.4c0.1,0.3-0.1,0.7-0.7,0.7h-0.8c-0.5,0-0.7-0.4-0.7-0.7c0-0.1,0-0.4,0-0.5
	V49.1h-5.5c-0.5,0-0.9,0-1.2,0.1s-0.5,0-0.5-0.1c0-0.5,0.7-0.9,1.5-0.9h14c0.8,0,1.3,0.4,1.3,0.9c0,0.1-0.4,0.3-0.7,0.1
	c-0.3-0.1-0.7-0.1-1.2-0.1H74.4z"/>
<path class="st1" d="M88,56.2c-0.3,0-0.4,0.1-0.4,0.3v6.3c0,0.1,0.1,0.3,0.4,0.3h9.7c0.5,0,0.8,0,1.1-0.1c0.5-0.1,1.3-0.1,1.5,0.3
	c0.1,0.4,0,0.8-0.4,0.8H86.4c-0.5,0-0.9-0.4-0.8-0.8v-0.3V49.3V49c0-0.4,0.3-0.8,0.8-0.8h12.9c0.4,0,0.4,0.3,0.4,0.8
	c-0.1,0.4-0.9,0.4-1.5,0.3c-0.1,0-0.4,0-0.7,0H88c-0.3,0-0.4,0.1-0.4,0.3v5.6c0,0.1,0.1,0.3,0.4,0.3h8.7c0.1,0,0.1,0,0.3,0
	c0.5,0,1.2,0,1.2,0.4v0.1c0,0.4-0.7,0.5-1.3,0.4h-0.3H88V56.2z"/>
<path class="st1" d="M114.3,63.3c1.9,0,3.5-0.3,5.1-0.8c0.1-0.1,0.3-0.3,0.3-0.4v-3.9c0-0.5-0.3-0.8-1.2-1.1c0,0-0.1,0-0.3,0
	c-0.5-0.1,0.3-0.3,1.3-0.1c1.5,0.1,2.1,1.1,2.1,2v2.8c0,0.7-0.5,1.3-1.5,1.7c-1.9,0.5-4,0.9-6.1,0.9c-6.4,0-10.8-3.2-10.8-8
	s4.7-8.4,11.2-8.4c1.5,0,3.2,0.3,4.4,0.7l0.4,0.1c0.9,0.3,1.9,0.7,1.9,1.3v0.5c0,0.4-0.7,0.4-0.9,0.1c-1.3-1.3-3.1-2-5.5-2
	c-5.2,0-9.1,3.1-9.1,7.2C105.4,60.3,109.1,63.3,114.3,63.3"/>
<path class="st1" d="M144.7,63.9c0,0-0.5,0.3-1.5,0.3s-1.9-0.3-2.4-0.8l-5.5-5.3c-0.8-0.8-2-1.2-3.5-1.2h-2c-0.3,0-0.4,0.1-0.4,0.3
	V63c0,0.1,0,0.3,0,0.4c0.1,0.3-0.1,0.7-0.7,0.7h-0.7c-0.5,0-0.7-0.3-0.7-0.7c0-0.1,0-0.3,0-0.4V49.1v-0.3c0-0.4,0.3-0.8,0.9-0.8h5.5
	c3.1,0,4.8,0.3,6.3,0.8c1.9,0.7,3.1,2.1,3.1,3.6c0,1.3-1.1,2.7-2.7,3.5c-0.9,0.4-1.9,0.5-3.6,0.7c-0.1,0-0.4,0.1-0.3,0.3l6.3,5.9
	c0.7,0.5,0.9,0.8,1.1,0.9C144.1,63.7,144.2,63.8,144.7,63.9 M138.7,55.3c1.2-0.5,2.1-1.6,2.1-2.7s-0.8-2.1-2-2.7
	c-1.2-0.5-2.7-0.8-5.1-0.8h-3.9c-0.3,0-0.4,0.1-0.4,0.3v6.1c0,0.1,0.3,0.3,0.4,0.3h4C136.9,55.8,137.8,55.7,138.7,55.3"/>
<path class="st1" d="M155.4,48.2c0.9,0,1.7,0.4,2.1,0.9l8.1,13.6l0.3,0.5c0,0.1,0.1,0.1,0.1,0.3c0.3,0.3,0.1,0.5-0.3,0.5h-1.6
	c-0.4,0-0.4-0.3-0.4-0.5c0-0.1,0-0.1-0.3-0.7l-2.5-4.4c-0.1-0.1-0.3-0.3-0.4-0.3H151c-0.3,0-0.4,0.1-0.4,0.3l-2.5,4.4
	c-0.1,0.3-0.3,0.4-0.3,0.5c0,0.3-0.1,0.7-0.5,0.7h-0.9c-0.4,0-0.7-0.3-0.4-0.5c0.1-0.3,0.3-0.5,0.5-0.9l7.9-13.1
	c0.1-0.3,0.3-0.4,0.3-0.5c0-0.3,0.3-0.7,0.7-0.7h0.1V48.2z M151,57c-0.1,0.1,0,0.1,0.1,0.1h8.5c0.1,0,0.3-0.1,0.1-0.1l-4.4-7.2
	c0-0.1-0.1-0.1-0.3,0L151,57z"/>
<path class="st0" d="M179.4,74.2c-21.5,13.1-46.2,19.2-71.2,14.4c-7.1-1.3-14-3.6-20.6-6.7l-0.5,0.5c6,2.9,12.3,5.3,18.4,7.1
	c27,7.6,54.9,1.6,78.5-12.8C183.7,77.2,180.4,73.6,179.4,74.2"/>
<path class="st2" d="M57.3,68.6c0.3,0.1,0.7,0.4,0.5,0.8l-0.1,0.3c-0.1,0.3-0.4,0.3-0.4,0.1c-0.3-0.5-0.8-0.9-1.7-0.9
	c-1.5,0-2.8,0.9-3.2,2.1c-0.4,0.9-0.1,1.5,0.8,1.9c0.3,0.1,0.8,0.4,1.2,0.5c1.3,0.5,1.9,1.1,2,1.9c0,0.3,0,0.7-0.1,1.1
	c-0.7,1.7-2.5,2.9-4.5,2.9c-0.7,0-1.6-0.3-2.1-0.4h-0.1c-0.3-0.1-0.7-0.4-0.5-0.8l0.1-0.3c0.1-0.3,0.5-0.3,0.5-0.1
	c0.4,0.7,1.1,0.9,2.1,0.9c1.6,0,3.1-0.9,3.5-2.1c0.3-0.7,0.1-1.2-0.1-1.5s-0.7-0.4-1.9-0.9c-1.3-0.5-1.7-0.9-1.9-1.7
	c0-0.4,0-0.8,0.1-1.2c0.5-1.6,2.5-2.9,4.5-2.9C56.2,68.2,56.6,68.4,57.3,68.6"/>
<path class="st2" d="M64.8,74.8c0,0.1,0,0.1-0.1,0.3l-0.1,0.1l-5.6,0.5c0,0-0.1,0-0.1,0.1c-0.1,0.9,0,0.9,0,1.6
	c0.1,0.9,0.8,1.3,1.7,1.3c0.9,0,2-0.5,2.9-1.5c0-0.1,0.1,0,0.1,0.1l-0.1,0.4c-0.1,0.3-0.3,0.5-0.4,0.7c-0.8,0.5-1.9,0.9-2.8,0.9
	c-2,0-2.8-1.7-2-4.1c0.8-2.4,2.9-4.1,4.8-4.1C64.9,71.2,65.6,72.5,64.8,74.8 M64.1,74.2c0.5-1.5-0.1-2.5-1.3-2.5
	c-1.6,0-2.9,1.5-3.6,3.3v0.1l4.8-0.5c0,0,0.1,0,0.1-0.1V74.2z"/>
<path class="st2" d="M71.7,79.6c-0.4,1.2-2.3,2.4-4.3,2.7c-2.1,0.3-3.2-0.3-2.8-1.6c0.1-0.4,0.7-0.8,1.2-1.2c0.1,0,0.1-0.1,0.1-0.1
	c-0.7-0.3-0.9-1.1-0.7-1.9c0.3-0.5,0.7-1.1,1.2-1.3c0.3-0.1,0.5-0.4,0.5-0.7c-0.1-0.4,0-1.1,0.1-1.6c0.5-1.5,2.3-2.8,3.9-2.8
	c0.8,0,1.6,0.4,1.9,0.9c0-0.3-0.1-0.4-0.1-0.7s0-0.5,0.3-0.5h0.1c0.4,0.7,0.1,2-0.3,2.9c-0.7,1.6-2.4,2.9-4,2.9
	c-0.4,0-0.9-0.1-1.2-0.3c-0.3-0.1-0.7-0.3-1.1,0c-0.3,0.3-0.5,0.5-0.7,0.8c-0.3,0.7,0,1.6,1.5,1.3c0.7-0.1,1.2-0.1,1.7-0.3
	c1.1-0.1,1.7-0.1,2.1,0.1C71.7,78.6,71.8,79.2,71.7,79.6 M70.8,79.8c0.3-0.8-0.4-0.9-2.7-0.7c-0.9,0.1-1.6,0.1-1.6,0.1s-0.1,0-0.3,0
	c-0.4,0.4-0.7,0.7-0.8,1.1c-0.3,0.9,0.4,1.3,2,1.2C69,81.4,70.5,80.6,70.8,79.8 M68,73.8c-0.5,1.3,0.1,2.3,1.3,2.3s2.5-1.1,3.1-2.3
	c0.4-1.3-0.1-2.1-1.3-2.1C69.7,71.7,68.4,72.6,68,73.8"/>
<path class="st2" d="M82.1,71.3l-1.7,4.8c-0.4,1.2-0.7,1.9-0.8,2.4c0,0.4-0.4,0.9-0.8,0.8l0,0c0-0.5,0-0.8,0.3-1.7l0.1-0.3l0,0
	c-0.9,1.3-2.1,2.1-3.5,2.1c-0.8,0-1.3-0.4-1.5-0.9c-0.1-0.4,0-0.9,0.3-1.6l1.7-4.8c0-0.1,0.1-0.3,0.1-0.3c0-0.3,0.1-0.5,0.4-0.7
	c0.3,0,0.5,0,0.5,0.1l-1.9,5.2c-0.7,1.7-0.5,2.3,0.7,2.3c1.6,0,3.2-1.6,4.1-4.1l0.9-2.7c0-0.1,0.1-0.3,0.1-0.3
	c0-0.3,0.3-0.5,0.5-0.7C82,71.2,82.3,71.2,82.1,71.3"/>
<path class="st2" d="M84.8,74.2l-0.1,0.1l-1.5,4.1v0.1c-0.1,0.3-0.3,0.5-0.4,0.5h-0.3c-0.3,0-0.1-0.3-0.1-0.5v-0.1l2.3-6.4
	c0-0.1,0.1-0.3,0.1-0.3c0-0.3,0.1-0.5,0.5-0.7c0.3,0,0.5,0,0.4,0.1l-0.7,2l0,0c0.9-1.2,1.3-1.6,2-1.9c0.3-0.1,0.7-0.3,1.1-0.3
	s0.5,0,0.9,0.3c0.1,0,0.1,0.3,0,0.4c-0.1,0.3-0.5,0.3-0.7,0.1c-0.1-0.1-0.3-0.1-0.5-0.1c-0.5,0-1.2,0.4-2.1,1.2
	C85.5,73.4,85.2,73.7,84.8,74.2"/>
<path class="st2" d="M95.7,75.2c-0.8,2.4-2.9,4.1-4.9,4.1s-2.9-1.7-2-4.1c0.8-2.3,2.9-4.1,4.9-4.1C95.6,71.2,96.5,72.9,95.7,75.2
	 M94.9,75.2c0.7-2,0-3.5-1.5-3.5c-1.5,0-3.2,1.6-4,3.5c-0.7,2,0,3.6,1.5,3.6C92.4,78.8,94.3,77.2,94.9,75.2"/>
<path class="st2" d="M102.6,71.4c0.3,0.1,0.7,0.3,0.5,0.5v0.1c-0.1,0.3-0.4,0.3-0.5,0.1c-0.3-0.4-0.8-0.5-1.5-0.5
	c-1.1,0-2,0.5-2.3,1.3s0,1.1,1.3,1.6c1.6,0.7,2,1.3,1.6,2.5c-0.4,1.3-1.9,2.1-3.3,2.1c-0.4,0-0.9,0-1.2-0.1L96.8,79
	c-0.3-0.1-0.7-0.3-0.5-0.5l0.1-0.4c0.1-0.3,0.4-0.3,0.4-0.1c0.3,0.5,0.8,0.9,1.7,0.9c1.1,0,2-0.5,2.3-1.5c0.3-0.7,0-1.1-0.8-1.6
	c-0.3-0.1-0.7-0.3-1.1-0.5c-1.2-0.5-1.6-1.2-1.2-2.1c0.4-1.2,1.7-2,3.2-2C101.6,71.2,102,71.2,102.6,71.4"/>
<path class="st2" d="M111.1,69c0.1-0.3,0.3-0.5,0.5-0.5h1.6c1.9,0,2.9,0.3,3.7,1.1c1.1,0.9,1.5,2.5,0.8,4.3
	c-0.7,1.9-2.4,3.7-4.4,4.7c-1.3,0.5-2.4,0.8-4.1,0.8h-1.3c-0.3,0-0.3-0.3-0.1-0.5v-0.1l3.3-9.2C111.1,69.2,111.1,69,111.1,69
	 M108.7,78.4c0,0.1,0,0.1,0.1,0.1h0.8c1.5,0,2.8-0.4,3.9-0.9c1.5-0.8,2.7-2.3,3.2-3.9c0.5-1.5,0.3-2.8-0.5-3.7
	c-0.7-0.7-1.6-0.9-3.3-0.9h-0.7c-0.1,0-0.3,0.1-0.3,0.1L108.7,78.4z"/>
<path class="st2" d="M125.4,74.8c0,0.1,0,0.1-0.1,0.3l-0.1,0.1l-5.6,0.5c0,0-0.1,0-0.1,0.1c-0.3,1.1-0.1,1.1-0.1,1.6
	c0.1,0.9,0.8,1.3,1.7,1.3c0.9,0,2-0.5,2.9-1.5c0-0.1,0.1,0,0.1,0.1l-0.1,0.4c-0.1,0.3-0.3,0.5-0.4,0.7c-0.8,0.5-1.9,0.9-2.8,0.9
	c-2,0-2.8-1.7-2-4.1s2.9-4.1,4.8-4.1S126.2,72.5,125.4,74.8 M124.7,74.2c0.5-1.5-0.1-2.5-1.3-2.5c-1.6,0-2.9,1.5-3.6,3.3v0.1
	l4.8-0.5c0,0,0.1,0,0.1-0.1V74.2z"/>
<path class="st2" d="M133,73.6c0.4-1.3,0.3-1.9-0.8-1.9c-1.2,0-2.7,1.1-3.7,2.7l-1.5,4.1v0.1c-0.1,0.3-0.3,0.5-0.4,0.5h-0.3
	c-0.3,0-0.1-0.3,0-0.5v-0.1l2.3-6.4V72c0.1-0.3,0.1-0.7,0.5-0.7c0.3,0,0.5,0,0.5,0.1l-0.7,2l0,0c0.8-1.2,2.3-2.1,3.6-2.1
	c0.7,0,1.2,0.3,1.5,0.8c0.1,0.4,0.1,0.8-0.1,1.7l-1.3,3.7c-0.4,0.4-0.4,1.1-0.4,1.6c0,0,0,0.1-0.1,0.1c-0.5,0-0.8-0.3-0.8-0.8
	c0-0.3,0.1-0.5,0.3-0.9L133,73.6z"/>
<path class="st2" d="M136.3,79.3c-1.2,0-1.5-0.7-0.8-2.3l1.9-5.1v-0.1h-0.9c-0.1,0,0.1-0.5,0.1-0.5h0.9c0,0,0.1,0,0.1-0.1l0,0
	c0.1-0.5,0.5-0.9,1.1-1.1c0.1,0,0.1,0,0.1,0l-0.4,1.1v0.1h2.4c0.1,0-0.1,0.5-0.1,0.5h-2.4c0,0-0.1,0-0.1,0.1l-1.9,5.1
	c-0.5,1.5-0.4,1.7,0.4,1.7c0.5,0,0.9-0.3,1.5-0.5c0.1-0.1,0.3-0.1,0.3,0c-0.1,0.3-0.3,0.5-0.7,0.8C137.3,79.2,136.9,79.3,136.3,79.3
	"/>
<path class="st2" d="M146.6,74c0.1,0,0.1,0,0.1-0.1c0.5-1.5,0.1-2.1-1.1-2.1c-0.5,0-1.1,0.1-1.6,0.4c-0.4,0.1-1.2-0.1-0.8-0.3
	c0.8-0.4,1.6-0.7,2.5-0.7c1.2,0,1.9,0.4,2,1.1c0.1,0.5,0,0.9-0.5,2.4l-0.1,0.1l-0.3,0.8l-0.3,0.7c-0.3,0.5-0.4,0.9-0.4,1.1
	c-0.3,0.7-0.4,1.5-0.3,1.9c0,0,0,0.1-0.1,0.1c-0.5,0.1-0.8-0.3-0.8-0.8c0-0.3,0.1-0.5,0.3-0.9l0,0c-0.8,1.1-2,1.7-3.2,1.7
	c-1.5,0-2.3-0.9-1.7-2.3c0.3-0.8,1.1-1.6,2.1-2c0.5-0.1,1.1-0.4,1.7-0.4C145.4,74.4,145.9,74.2,146.6,74 M146.5,74.6
	C146.5,74.5,146.5,74.5,146.5,74.6h-0.3c-0.8,0.3-1.2,0.5-2,0.7c-2,0.4-2.7,0.9-3.1,1.9c-0.3,0.9,0.3,1.6,1.3,1.6
	c1.6,0,3.1-1.5,3.9-3.6L146.5,74.6z"/>
<path class="st2" d="M153,68.2c0.3,0,0.3,0.4,0,0.7c0,0.1-0.1,0.1-0.1,0.3l-2.8,7.7c-0.5,1.5-0.5,1.7,0.3,1.7c0.1,0,0.1,0,0.3,0
	c0.3-0.1,0.5,0,0.5,0.3V79c-0.3,0.1-0.7,0.3-0.9,0.3c-1.1,0-1.3-0.7-0.7-2.4l3.1-8.5C152.5,68.2,152.6,68.2,153,68.2"/>
<path class="st2" d="M160.2,74.8c0,0.1,0,0.1-0.1,0.3l-0.1,0.1l-5.6,0.5c0,0-0.1,0-0.1,0.1c-0.3,1.1-0.1,1.1-0.1,1.6
	c0.1,0.9,0.8,1.3,1.7,1.3c0.9,0,2-0.5,2.9-1.5c0-0.1,0.1,0,0.1,0.1l-0.1,0.4c-0.1,0.3-0.3,0.5-0.4,0.7c-0.8,0.5-1.9,0.9-2.8,0.9
	c-2,0-2.8-1.7-2-4.1s2.9-4.1,4.8-4.1C160.4,71.2,161,72.5,160.2,74.8 M159.6,74.2c0.5-1.5-0.1-2.5-1.3-2.5c-1.6,0-2.9,1.5-3.6,3.3
	v0.1l4.8-0.5c0,0,0.1,0,0.1-0.1V74.2z"/>
<path class="st2" d="M167.2,71.4c0.3,0.1,0.7,0.3,0.5,0.5v0.1c-0.1,0.3-0.4,0.3-0.5,0.1c-0.3-0.4-0.8-0.5-1.5-0.5
	c-1.1,0-2,0.5-2.3,1.3c-0.3,0.8,0,1.1,1.3,1.6c1.6,0.7,2,1.3,1.6,2.5c-0.4,1.3-1.9,2.1-3.3,2.1c-0.4,0-0.9,0-1.2-0.1l-0.4-0.1
	c-0.3-0.1-0.7-0.3-0.5-0.5l0.1-0.4c0.1-0.3,0.4-0.3,0.4-0.1c0.3,0.5,0.8,0.9,1.7,0.9c1.1,0,2-0.5,2.3-1.5c0.3-0.7,0-1.1-0.8-1.6
	c-0.3-0.1-0.7-0.3-1.1-0.5c-1.2-0.5-1.6-1.2-1.2-2.1c0.4-1.2,1.7-2,3.2-2C166.2,71.2,166.6,71.2,167.2,71.4"/>
<path class="st1" d="M163.4,48.3c0-1.3,1.1-2.4,2.4-2.4s2.4,1.1,2.4,2.4c0,1.3-1.1,2.4-2.4,2.4C164.5,50.6,163.4,49.7,163.4,48.3
	 M167.6,48.3c0-1.1-0.8-1.9-1.7-1.9c-0.9,0-1.7,0.8-1.7,1.9c0,1.1,0.8,1.9,1.7,1.9C166.8,50.2,167.6,49.4,167.6,48.3 M164.9,47h0.9
	c0.7,0,0.9,0.3,0.9,0.8c0,0.4-0.3,0.7-0.7,0.7l0.7,1.2h-0.5l-0.7-1.2h-0.3v1.2h-0.5V47H164.9z M165.4,48.1h0.4c0.3,0,0.5,0,0.5-0.4
	c0-0.3-0.3-0.4-0.5-0.4h-0.4V48.1z"/>
</svg>
