<?xml version="1.0" encoding="utf-8"?>
<!-- Generator: Adobe Illustrator 22.0.0, SVG Export Plug-In . SVG Version: 6.00 Build 0)  -->
<svg version="1.1"
	 id="Innova-tbs" inkscape:version="0.48.0 r9654" sodipodi:docname="innova-tsn.svg" xmlns:cc="http://creativecommons.org/ns#" xmlns:dc="http://purl.org/dc/elements/1.1/" xmlns:inkscape="http://www.inkscape.org/namespaces/inkscape" xmlns:rdf="http://www.w3.org/1999/02/22-rdf-syntax-ns#" xmlns:sodipodi="http://sodipodi.sourceforge.net/DTD/sodipodi-0.dtd" xmlns:svg="http://www.w3.org/2000/svg"
	 xmlns="http://www.w3.org/2000/svg" xmlns:xlink="http://www.w3.org/1999/xlink" x="0px" y="0px" viewBox="0 0 601.5 133.5"
	 style="enable-background:new 0 0 601.5 133.5;" xml:space="preserve">
<style type="text/css">
	.st0{fill:#FFFFFF;}
	.st1{fill:#808080;}
	.st2{fill:#023B7E;}
</style>
<rect class="st0" width="601.5" height="133.5"/>
<g>
	<path id="path3073" class="st1" d="M34.2,14.4h93.1V120H34.2V14.4z"/>
	<path id="path3075" class="st2" d="M40.4,114.6H54V69.5H40.4C40.4,69.5,40.4,114.6,40.4,114.6z"/>
	<path id="path3087" class="st2" d="M133.8,114.6h13.7V92.9c0.1-5.5,1.6-9.5,4.4-12.1c2.8-2.6,6-3.9,9.7-3.8
		c3.4-0.1,6.1,0.8,8.3,2.7c2.2,1.9,3.3,5.6,3.4,11.1v23.9h13.7V86.8c-0.1-4.9-1.3-8.7-3.6-11.5c-2.3-2.8-5-4.8-8.2-5.9
		c-3.2-1.2-6.2-1.7-9-1.7c-4.1,0-7.8,0.7-10.9,2.2c-3.2,1.5-5.9,3.8-8.2,7h-0.2c0-1.3,0-2.5-0.1-3.7c-0.1-1.2-0.2-2.5-0.2-3.7h-13.1
		c0.1,1.5,0.2,3.1,0.2,4.9c0.1,1.8,0.1,3.8,0.1,5.8L133.8,114.6L133.8,114.6z"/>
	<path id="path3091" class="st2" d="M226.9,67.8c-7.6,0.1-13.5,1.3-17.8,3.5c-4.3,2.3-7.3,5.3-9.1,8.9c-1.7,3.7-2.6,7.6-2.5,11.8
		c-0.1,4.2,0.8,8.2,2.5,11.8c1.7,3.7,4.8,6.6,9.1,8.9c4.3,2.3,10.2,3.5,17.8,3.5c7.6-0.1,13.5-1.2,17.8-3.5c4.3-2.3,7.3-5.3,9.1-8.9
		c1.7-3.7,2.6-7.6,2.5-11.8c0.1-4.2-0.8-8.2-2.5-11.8c-1.7-3.7-4.8-6.6-9.1-8.9C240.4,69,234.4,67.8,226.9,67.8 M226.9,76.4
		c5.2,0.1,9,1.6,11.5,4.5s3.7,6.6,3.7,11.1c0,4.5-1.2,8.2-3.7,11.1c-2.5,2.9-6.3,4.4-11.5,4.5c-5.2-0.1-9-1.6-11.5-4.5
		c-2.5-2.9-3.7-6.6-3.7-11.1c0-4.5,1.2-8.2,3.7-11.1C217.9,78,221.7,76.5,226.9,76.4"/>
	<path id="path3095" class="st2" d="M259.6,69.5l23.8,45.2h17.1l23.8-45.2h-14.6l-17.1,35.1l-17.1-35.1H259.6z"/>
	<path id="path3099" class="st2" d="M369,94c-0.1,3.6-1.1,6.5-3,8.6c-1.9,2.2-4.1,3.7-6.7,4.7c-2.6,1-5.1,1.4-7.4,1.4
		c-3.9-0.1-6.6-0.9-8.1-2.5c-1.6-1.5-2.3-3.1-2.2-4.8c0-2.7,1.4-4.6,4.2-5.8c2.8-1.2,6.8-1.8,12-1.8C357.7,94,369,94,369,94z
		 M382.7,87.2c-0.1-5.2-1.4-9.3-3.9-12.1c-2.5-2.8-5.7-4.8-9.6-5.8c-3.9-1.1-8-1.6-12.3-1.5c-4,0-7.8,0.3-11.5,1.2
		c-3.7,0.8-6.8,2.3-9.4,4.4c-2.6,2.1-4.1,5.1-4.6,8.9h14.2c0.3-1.8,1.3-3.3,3.2-4.5c1.9-1.2,4.4-1.8,7.8-1.8c3.5-0.1,6.5,0.6,8.8,2
		c2.4,1.4,3.6,4.1,3.7,8.1h-10.9c-5.8-0.1-11,0.3-15.7,1.2c-4.6,0.8-8.3,2.4-11,4.8c-2.7,2.4-4.1,5.9-4.1,10.6c0,2.2,0.6,4.4,2,6.5
		c1.4,2.1,3.6,3.8,6.7,5.2c3.1,1.4,7.3,2.1,12.6,2.2c4.4,0,8.3-0.6,11.9-1.8c3.6-1.2,6.7-3.3,9.6-6.1c0,2.1,0.1,4.1,0.4,6.2H383
		c-0.1-1.5-0.2-2.9-0.3-4.3c-0.1-1.4-0.1-2.8-0.1-4.2L382.7,87.2L382.7,87.2z"/>
	<path id="path3101" class="st1" d="M395,94.6h30.2v-7.9H395V94.6z"/>
	<path id="path3117" class="st0" d="M120.4,114.6h-13.7V92.9c-0.1-5.5-1.6-9.5-4.4-12.1c-2.8-2.6-6-3.9-9.7-3.8
		c-3.4-0.1-6.1,0.8-8.3,2.7c-2.2,1.9-3.3,5.6-3.4,11.1v23.9H67.3V86.8c0.1-4.9,1.3-8.7,3.6-11.5c2.3-2.8,5-4.8,8.2-5.9
		c3.2-1.2,6.2-1.7,9-1.7c4.1,0,7.8,0.7,10.9,2.2c3.2,1.5,5.9,3.8,8.2,7h0.2c0-1.3,0-2.5,0.1-3.7c0.1-1.2,0.2-2.5,0.2-3.7h13.1
		c-0.1,1.5-0.2,3.1-0.2,4.9c-0.1,1.8-0.1,3.8-0.1,5.8V114.6L120.4,114.6z"/>
	<path id="path3121" class="st2" d="M38.6,52.3c0-4.6,3.7-8.3,8.3-8.3s8.3,3.7,8.3,8.3c0,4.6-3.7,8.3-8.3,8.3
		C42.3,60.6,38.6,56.9,38.6,52.3"/>
	<path id="path3125" class="st1" d="M13.6,52.3c0-4.6,3.7-8.3,8.3-8.3s8.3,3.7,8.3,8.3c0,4.6-3.7,8.3-8.3,8.3
		C17.3,60.6,13.6,56.9,13.6,52.3"/>
	<path id="path3129" class="st1" d="M13.6,28.5c0-4.6,3.7-8.3,8.3-8.3s8.3,3.7,8.3,8.3s-3.7,8.3-8.3,8.3
		C17.3,36.9,13.6,33.1,13.6,28.5"/>
	<path id="path3133" class="st0" d="M38.6,28.5c0-4.6,3.7-8.3,8.3-8.3s8.3,3.7,8.3,8.3s-3.7,8.3-8.3,8.3
		C42.3,36.9,38.6,33.1,38.6,28.5"/>
	<path class="st1" d="M444.7,61.6l8.8-3.7v12h13.3v6.1h-13.3v26.1c0,4.9,1.4,7.5,6.9,7.5c1.6,0,4.2-0.2,6.8-0.5v6.1
		c-2.9,0.4-5.8,0.5-8.5,0.5c-8.9,0-14-2.9-14-13V76.1h-11.8v-6.1h11.8L444.7,61.6L444.7,61.6z"/>
	<path class="st1" d="M486.2,102.3c0.8,6.3,6.6,8.5,14.6,8.5c9.9,0,14.8-3.1,14.8-7.8c0-10.5-36.6-2.5-36.6-20.6
		c0-10,9.5-14.2,22-14.2c9.4,0,21.5,2.3,22,13.4h-8.6c-1.3-5.7-6.3-7.3-13.1-7.3c-7.9,0-13.5,2.7-13.5,6.9c0,3.2,2.9,5.1,9.6,6.4
		l15,2.8c8.5,1.6,12.5,5.1,12.5,11.9c0,9.6-8,14.6-25.2,14.6c-12.1,0-22.4-4.1-23-14.6C476.8,102.3,486.2,102.3,486.2,102.3z"/>
	<path class="st1" d="M538.5,70c0,0,0.6,18.1,0.3,45.1h8.8c0,0,0-20.8,0-23c0-4.1,3-17.9,17.4-17.5c0,0,14.8-1.4,15.3,15.6
		c0,17.2,0,25.1,0,25.1h8.9l-0.4-26.4c0,0,1-20.2-21.5-20.6c0,0-13.4-0.7-20.1,9.8l-0.3-7.9L538.5,70z"/>
</g>
</svg>
