<?xml version="1.0" encoding="utf-8"?>
<!-- Generator: Adobe Illustrator 22.0.0, SVG Export Plug-In . SVG Version: 6.00 Build 0)  -->
<svg version="1.1" id="Layer_1" xmlns="http://www.w3.org/2000/svg" xmlns:xlink="http://www.w3.org/1999/xlink" x="0px" y="0px"
	 viewBox="0 0 472.5 189.8" style="enable-background:new 0 0 472.5 189.8;" xml:space="preserve">
<style type="text/css">
	.st0{fill:#023F86;}
</style>
<g>
	<path class="st0" d="M35.4,148.1h3.4l19.5,39.5h28.4l-18.9-39.5h43l-11.9,39.5h25.7l11.8-39.4h5.6v-0.1h57.3l-11.4,39.4h25.9
		l11-39.4h11.7l0.3,39.4h21.8l25-39.4h16.4l-8.4,39.4H317l8.3-39.4h14.8c-0.6,12.2,2.5,23.3,10.6,30.8c9.9,9.1,25.1,10.8,36.3,10.8
		c15.4,0,31.4-2.2,47.4-5.8l8.8-35.8h29.2V0H367.6v94.7c-3.3,2.6-6.1,5.4-8.7,8.4V0H253.9v86.2h-8.7V0H140.4v86.4h-8.7V0H26.8v98.4
		L0,187.7h23.5L35.4,148.1z M371.3,141.1c0.4-1.8,0.7-3.7,1.1-5.8c4.3-17.5,15.8-34.8,35.7-34.8c7.9,0,15.7,3,14.6,13.9H452
		c1.2-5.1,3.1-13.7-2.4-21.7c-6.2-8.6-18.8-12.1-35.1-12.1c-11.6,0-28.5,1.9-43.2,11.4V3.7h97.5v140.7h-24.5l4.1-16.2h-49.2l-4,16.2
		h-23.8V141.1z M416.2,148.1l-5,20.1c-5.6,1-11.1,1.7-16.4,1.7c-14.1,0-23.8-6.5-24-21.8H416.2z M300.6,144.5H286l22.2-34.9
		L300.6,144.5z M257.6,3.7h97.4v84.1l0,20.2c-6.8,9.4-11,19.6-13,27.9c-0.7,2.9-1.3,5.7-1.6,8.5h-14.3l12.2-58.1l-41.2,0l-36.9,58.1
		h-2.7V3.7z M225.9,144.5l10.3-36.4l0.4,36.4H225.9z M144.1,3.7h97.4v82.5h-24.4l-16.7,58.2h-25.9c13.2-4.9,21.2-14.2,23.7-28
		c2-10.7,1.1-17.8-3.3-23.1c-6.6-7.9-19.7-7.2-31.4-7.2c-2,0-19.3,0-19.3,0V3.7z M145,120.1l1.4-5.3l3.3-12.4c1.4,0,2.9-0.1,4.2-0.1
		h4.8c8.2,0,13.5,0.5,15.3,3.1c1.5,2,1.3,5.4-0.4,10.7c-2.9,9-6.7,13.6-18.6,14.5h0c-0.9,0-1.9,0.1-3,0.1c-1.4,0-2.5,0.1-3.6,0.1
		l-6.2-0.1L145,120.1z M30.5,3.7h97.4v87.6l-1.5,5.1l-13.9,46.4l-0.6,1.6H66l-3.6-7.6l49.5-50.5H80.1L41.4,128L54,86.4H30.5V3.7z"/>
</g>
</svg>
