<?xml version="1.0" encoding="utf-8"?>
<!-- Generator: Adobe Illustrator 22.0.0, SVG Export Plug-In . SVG Version: 6.00 Build 0)  -->
<svg version="1.1" id="Capa_1" xmlns="http://www.w3.org/2000/svg" xmlns:xlink="http://www.w3.org/1999/xlink" x="0px" y="0px"
	 viewBox="0 0 90.4 33.8" style="enable-background:new 0 0 90.4 33.8;" xml:space="preserve">
<style type="text/css">
	.st0{fill:#0033FF;}
	.st1{fill:#001081;}
</style>
<rect class="st0" width="3.7" height="24.8"/>
<path class="st0" d="M22,16.8c0,4.9-3.7,8.5-8.5,8.5c-4.8,0-8.5-3.6-8.5-8.5c0-4.9,3.7-8.4,8.5-8.4C18.3,8.4,22,11.9,22,16.8
	 M18.2,16.9c0-3.6-2.4-5.1-4.7-5.1c-2.4,0-4.7,1.5-4.7,5.1c0,3.1,1.8,5.1,4.7,5.1C16.4,22,18.2,19.9,18.2,16.9"/>
<path class="st0" d="M35.6,8.8h3.7v14.7c0,3.8-0.4,6.5-2.6,8.3c-1,0.8-2.7,1.7-5.3,1.7c-1.9,0-3.7-0.5-5.2-2c-1.2-1.2-2.1-3-2.4-5
	h3.6c0.2,0.9,0.6,1.9,1.2,2.5c0.5,0.5,1.4,1.1,2.9,1.1c1.6,0,2.5-0.6,2.9-1.1c1.2-1.2,1.2-2.8,1.2-4V23c-1.7,2.2-3.8,2.3-4.9,2.3
	c-2.1,0-3.8-0.6-5.3-2.2c-1.4-1.5-2.4-3.7-2.4-6.3c0-2.9,1.1-4.9,2.4-6.2C27,9,28.9,8.4,30.9,8.4c1.6,0,3.4,0.5,4.7,2.2V8.8z
	 M28.5,12.8c-1,0.9-1.6,2.4-1.6,4.1c0,1.6,0.6,3.2,1.6,4c0.7,0.6,1.7,1.1,2.8,1.1c1.2,0,2.2-0.3,3.1-1.3c1.1-1.2,1.4-2.5,1.4-3.8
	c0-1.8-0.6-3.1-1.5-4c-0.9-0.9-1.9-1.1-3-1.1C30.3,11.7,29.3,12,28.5,12.8"/>
<path class="st0" d="M53.1,8.8h3.7v16h-3.7v-1.7c-1.6,1.9-3.6,2.2-4.8,2.2c-4.9,0-7.7-4.1-7.7-8.5c0-5.2,3.6-8.4,7.8-8.4
	c1.2,0,3.2,0.3,4.7,2.3V8.8z M44.3,16.9c0,2.8,1.7,5.1,4.4,5.1c2.4,0,4.5-1.7,4.5-5c0-3.5-2.2-5.2-4.5-5.2
	C46.1,11.7,44.3,14,44.3,16.9"/>
<rect x="58.5" class="st0" width="3.7" height="24.8"/>
<path class="st1" d="M86.7,8.8v1.6h0v7.1c0,1.1-0.2,2.3-1.2,3.4c-0.9,0.9-1.9,1.3-3.1,1.3c-1.1,0-2.2-0.5-2.8-1.1
	c-1-0.9-1.6-2.4-1.6-4c0-0.1,0-0.2,0-0.2V8.8h-3.8v8.2h0c0,2.6,1,4.8,2.4,6.3c1.5,1.6,3.2,2.2,5.3,2.2c1.1,0,3.2-0.1,4.9-2.3v2.1
	c0,1.2,0,2.8-1.2,4c-0.5,0.5-1.4,1.1-2.9,1.1c-1.5,0-2.4-0.6-2.9-1.1c-0.6-0.6-1-1.6-1.2-2.5h-3.6c0.3,1.9,1.2,3.8,2.4,5
	c1.5,1.5,3.4,2,5.2,2c2.6,0,4.3-0.9,5.3-1.7c2.2-1.9,2.6-4.6,2.6-8.3V8.8H86.7z"/>
<path class="st1" d="M63.8,8.8v7.3h0v2.5c0,2.5,0.6,4,1.6,5c0.7,0.7,2,1.5,4.5,1.4c0.8,0,1.8-0.1,2.7-0.5v-3.7
	c-0.8,0.5-1.8,0.7-2.3,0.8c-0.8,0.1-1.7-0.1-2.1-0.6c-0.2-0.2-0.6-0.8-0.6-1.9v-4.8h0v-2h5V8.8h-5V0h-3.7V8.8"/>
</svg>
