<?xml version="1.0" encoding="utf-8"?>
<!-- Generator: Adobe Illustrator 22.0.0, SVG Export Plug-In . SVG Version: 6.00 Build 0)  -->
<svg version="1.1" id="Capa_1" xmlns="http://www.w3.org/2000/svg" xmlns:xlink="http://www.w3.org/1999/xlink" x="0px" y="0px"
	 viewBox="0 0 318.3 267.4" style="enable-background:new 0 0 318.3 267.4;" xml:space="preserve">
<style type="text/css">
	.st0{fill:#FFFFFF;}
	.st1{fill:#720F17;}
	.st2{fill:#960611;}
	.st3{fill:#E41D2E;}
	.st4{fill:#EF5822;}
	.st5{fill:#E7813A;}
	.st6{fill:#F79B1D;}
	.st7{fill:#D5B858;}
	.st8{fill:#B59F77;}
	.st9{fill:#87C97B;}
	.st10{fill:#72B091;}
	.st11{fill:#76A77B;}
	.st12{fill:#69C9CD;}
	.st13{fill:#A5DFDF;}
</style>
<path d="M24.7,121.9c-0.6,1.2-1.4,2.3-2.4,3.1c-1,0.8-2.3,1.5-3.7,1.9c-1.4,0.4-3,0.7-4.8,0.7c-2.5,0-4.9-0.4-7.3-1.3
	c-2.4-0.8-4.5-2.1-6.5-3.9l4.2-5c1.5,1.2,3,2.2,4.6,2.9s3.3,1.1,5.1,1.1c1.5,0,2.6-0.3,3.4-0.8c0.8-0.5,1.2-1.3,1.2-2.2v-0.1
	c0-0.5-0.1-0.9-0.3-1.2s-0.5-0.7-1-1c-0.5-0.3-1.1-0.6-2-0.9c-0.9-0.3-2-0.6-3.3-1c-1.6-0.4-3.1-0.8-4.5-1.3
	c-1.3-0.5-2.5-1.1-3.4-1.8c-0.9-0.7-1.6-1.6-2.2-2.7c-0.5-1.1-0.8-2.4-0.8-4v-0.1c0-1.5,0.3-2.8,0.8-4c0.6-1.2,1.3-2.2,2.3-3.1
	c1-0.9,2.2-1.5,3.6-2c1.4-0.5,2.9-0.7,4.6-0.7c2.4,0,4.6,0.4,6.5,1.1c2,0.7,3.8,1.7,5.5,3.1l-3.7,5.4c-1.4-1-2.9-1.8-4.3-2.3
	c-1.4-0.6-2.8-0.9-4.2-0.9s-2.4,0.3-3.1,0.8c-0.7,0.5-1,1.2-1,2v0.1c0,0.5,0.1,1,0.3,1.4c0.2,0.4,0.6,0.7,1.1,1
	c0.5,0.3,1.2,0.6,2.2,0.9c0.9,0.3,2.1,0.6,3.5,1c1.6,0.4,3.1,0.9,4.4,1.5c1.3,0.5,2.4,1.2,3.2,1.9c0.9,0.8,1.5,1.6,2,2.7
	c0.4,1,0.7,2.2,0.7,3.7v0.1C25.6,119.2,25.3,120.7,24.7,121.9"/>
<path d="M45.5,127.2v-2.7c-0.9,1-1.9,1.7-3.1,2.3c-1.2,0.6-2.7,0.9-4.4,0.9c-1.2,0-2.3-0.2-3.3-0.5c-1-0.3-1.9-0.8-2.7-1.5
	c-0.8-0.6-1.4-1.4-1.8-2.4c-0.4-0.9-0.7-2-0.7-3.3V120c0-1.4,0.2-2.5,0.7-3.5c0.5-1,1.2-1.8,2.1-2.5c0.9-0.6,1.9-1.1,3.1-1.5
	c1.2-0.3,2.6-0.5,4-0.5c1.3,0,2.4,0.1,3.3,0.3c0.9,0.2,1.9,0.4,2.8,0.7v-0.4c0-1.5-0.4-2.6-1.3-3.4c-0.9-0.8-2.2-1.2-4-1.2
	c-1.4,0-2.6,0.1-3.6,0.3c-1,0.2-2.1,0.6-3.3,1l-1.8-5.4c1.4-0.6,2.8-1.1,4.3-1.4c1.5-0.4,3.3-0.6,5.4-0.6c3.9,0,6.7,0.9,8.4,2.8
	c1.8,1.9,2.6,4.5,2.6,7.9v14.4H45.5z M45.7,117.2c-0.6-0.3-1.3-0.5-2.1-0.7c-0.8-0.2-1.6-0.3-2.4-0.3c-1.5,0-2.7,0.3-3.6,0.9
	c-0.9,0.6-1.3,1.4-1.3,2.5v0.1c0,1,0.4,1.7,1.1,2.2c0.7,0.5,1.6,0.8,2.8,0.8c1.7,0,3-0.4,4-1.2c1-0.8,1.5-1.8,1.5-3.1V117.2z"/>
<path d="M70.7,99.2c-0.5-0.1-1-0.2-1.7-0.2c-1.7,0-2.5,0.9-2.5,2.7v1h5.7v5.7h-5.6v18.8h-7v-18.8h-2.9v-5.8h2.9v-1.6
	c0-2.7,0.7-4.8,2-6c1.3-1.3,3.2-1.9,5.7-1.9c1.1,0,2.1,0.1,2.8,0.2s1.5,0.3,2.1,0.5v5.8C71.7,99.5,71.2,99.3,70.7,99.2"/>
<path d="M99.1,116.4c0,0.2,0,0.5-0.1,0.9H81.8c0.3,1.6,1,2.8,2.1,3.6c1.1,0.8,2.4,1.2,4,1.2c1.2,0,2.2-0.2,3.1-0.6
	c0.9-0.4,1.9-1,2.9-1.9l4,3.6c-1.2,1.4-2.6,2.6-4.3,3.4c-1.7,0.8-3.6,1.2-5.9,1.2c-1.8,0-3.6-0.3-5.2-0.9c-1.6-0.6-3-1.5-4.1-2.6
	c-1.2-1.1-2.1-2.5-2.7-4c-0.6-1.6-1-3.3-1-5.2v-0.1c0-1.8,0.3-3.4,0.9-5c0.6-1.6,1.4-2.9,2.5-4.1c1.1-1.2,2.4-2.1,3.9-2.8
	c1.5-0.7,3.2-1,5-1c2.1,0,3.9,0.4,5.4,1.1c1.5,0.7,2.8,1.7,3.8,3c1,1.2,1.7,2.7,2.2,4.3c0.5,1.6,0.7,3.3,0.7,5.1v0.1
	C99.2,115.9,99.1,116.1,99.1,116.4 M90.7,109.1c-0.9-1-2.1-1.5-3.6-1.5c-1.5,0-2.7,0.5-3.6,1.4c-0.9,1-1.5,2.2-1.8,3.8h10.6
	C92.1,111.3,91.5,110,90.7,109.1"/>
<path d="M115.8,127.2c-0.9,0.3-1.9,0.4-3.1,0.4c-1.1,0-2.1-0.1-2.9-0.3c-0.9-0.2-1.6-0.6-2.3-1.2c-0.6-0.6-1.1-1.3-1.5-2.3
	c-0.4-0.9-0.5-2.1-0.5-3.6v-11.7h-3v-6h3v-6.3h7v6.3h5.8v6h-5.8V119c0,1.6,0.8,2.4,2.3,2.4c1.2,0,2.4-0.3,3.5-0.9v5.6
	C117.6,126.6,116.7,127,115.8,127.2"/>
<path d="M137.6,127.8c-0.5,1.3-1,2.3-1.5,3.2c-0.5,0.9-1.1,1.6-1.7,2.1c-0.6,0.6-1.3,1-2.1,1.2c-0.8,0.2-1.7,0.4-2.8,0.4
	c-1.3,0-2.4-0.2-3.4-0.5c-1-0.3-1.9-0.7-2.8-1.2l2.4-5.1c0.5,0.3,1,0.5,1.5,0.7c0.5,0.2,1,0.3,1.5,0.3c0.6,0,1.1-0.1,1.5-0.3
	c0.4-0.2,0.7-0.7,1-1.3l-9.7-24.9h7.4l5.6,16.9l5.4-16.9h7.3L137.6,127.8z"/>
<path d="M24.7,165c-0.6,1.2-1.4,2.3-2.4,3.1c-1,0.8-2.3,1.5-3.7,1.9c-1.4,0.4-3,0.7-4.8,0.7c-2.5,0-4.9-0.4-7.3-1.3
	c-2.4-0.8-4.5-2.1-6.5-3.9l4.2-5c1.5,1.2,3,2.2,4.6,2.9s3.3,1.1,5.1,1.1c1.5,0,2.6-0.3,3.4-0.8c0.8-0.5,1.2-1.3,1.2-2.2v-0.1
	c0-0.5-0.1-0.9-0.3-1.2c-0.2-0.4-0.5-0.7-1-1c-0.5-0.3-1.1-0.6-2-0.9c-0.9-0.3-2-0.6-3.3-1c-1.6-0.4-3.1-0.8-4.5-1.3
	c-1.3-0.5-2.5-1.1-3.4-1.8c-0.9-0.7-1.6-1.6-2.2-2.7c-0.5-1.1-0.8-2.4-0.8-4v-0.1c0-1.5,0.3-2.8,0.8-4c0.6-1.2,1.3-2.2,2.3-3.1
	c1-0.9,2.2-1.5,3.6-2c1.4-0.5,2.9-0.7,4.6-0.7c2.4,0,4.6,0.4,6.5,1.1c2,0.7,3.8,1.7,5.5,3.1l-3.7,5.4c-1.4-1-2.9-1.8-4.3-2.3
	c-1.4-0.6-2.8-0.9-4.2-0.9s-2.4,0.3-3.1,0.8c-0.7,0.5-1,1.2-1,2v0.1c0,0.5,0.1,1,0.3,1.4c0.2,0.4,0.6,0.7,1.1,1
	c0.5,0.3,1.2,0.6,2.2,0.9c0.9,0.3,2.1,0.6,3.5,1c1.6,0.4,3.1,0.9,4.4,1.5c1.3,0.5,2.4,1.2,3.2,1.9c0.9,0.8,1.5,1.6,2,2.7
	c0.4,1,0.7,2.2,0.7,3.7v0.1C25.6,162.3,25.3,163.7,24.7,165"/>
<path d="M46.5,170.2v-3.5c-0.4,0.5-0.8,1-1.3,1.5c-0.5,0.5-1,0.9-1.6,1.3c-0.6,0.4-1.2,0.7-1.9,0.9s-1.5,0.3-2.4,0.3
	c-2.7,0-4.8-0.8-6.2-2.4c-1.5-1.6-2.2-3.9-2.2-6.8v-16h7v13.8c0,1.7,0.4,2.9,1.1,3.8c0.7,0.8,1.8,1.3,3.1,1.3c1.4,0,2.4-0.4,3.2-1.3
	c0.8-0.8,1.2-2.1,1.2-3.8v-13.8h7v24.8H46.5z"/>
<path d="M90.6,170.2v-13.8c0-1.7-0.4-2.9-1.1-3.8c-0.7-0.8-1.7-1.3-3.1-1.3c-1.3,0-2.4,0.4-3.1,1.3c-0.8,0.8-1.1,2.1-1.1,3.8v13.8
	h-7v-13.8c0-1.7-0.4-2.9-1.1-3.8c-0.7-0.8-1.7-1.3-3.1-1.3c-1.3,0-2.4,0.4-3.1,1.3c-0.8,0.8-1.1,2.1-1.1,3.8v13.8h-7v-24.8h7v3.5
	c0.4-0.5,0.8-1,1.3-1.5s1-0.9,1.6-1.3c0.6-0.4,1.2-0.7,2-0.9c0.7-0.2,1.5-0.3,2.4-0.3c1.6,0,3,0.3,4.2,1c1.2,0.7,2.1,1.7,2.8,2.9
	c1.1-1.3,2.3-2.3,3.6-3c1.3-0.7,2.8-1,4.5-1c2.6,0,4.7,0.8,6.1,2.3c1.5,1.5,2.2,3.8,2.2,6.8v16.1H90.6z"/>
<path d="M134.5,170.2v-13.8c0-1.7-0.4-2.9-1.1-3.8c-0.7-0.8-1.7-1.3-3.1-1.3c-1.3,0-2.4,0.4-3.1,1.3c-0.8,0.8-1.1,2.1-1.1,3.8v13.8
	h-7v-13.8c0-1.7-0.4-2.9-1.1-3.8c-0.7-0.8-1.7-1.3-3.1-1.3c-1.3,0-2.4,0.4-3.1,1.3c-0.8,0.8-1.1,2.1-1.1,3.8v13.8h-7v-24.8h7v3.5
	c0.4-0.5,0.8-1,1.3-1.5s1-0.9,1.6-1.3c0.6-0.4,1.2-0.7,2-0.9c0.7-0.2,1.5-0.3,2.4-0.3c1.6,0,3,0.3,4.2,1c1.2,0.7,2.1,1.7,2.8,2.9
	c1.1-1.3,2.3-2.3,3.6-3c1.3-0.7,2.8-1,4.5-1c2.6,0,4.7,0.8,6.1,2.3c1.5,1.5,2.2,3.8,2.2,6.8v16.1H134.5z"/>
<path d="M147.8,136.5h7.4v6.2h-7.4V136.5z M148,145.5h7v24.8h-7V145.5z"/>
<path d="M173.1,170.3c-0.9,0.3-1.9,0.4-3.1,0.4c-1.1,0-2.1-0.1-2.9-0.3c-0.9-0.2-1.6-0.6-2.3-1.2c-0.6-0.6-1.1-1.3-1.5-2.3
	c-0.4-0.9-0.5-2.1-0.5-3.6v-11.7h-3v-6h3v-6.3h7v6.3h5.8v6h-5.8v10.6c0,1.6,0.8,2.4,2.3,2.4c1.2,0,2.4-0.3,3.5-0.9v5.6
	C174.8,169.7,174,170,173.1,170.3"/>
<polygon points="4.1,204.2 4.1,185.8 5.5,185.8 5.5,203 16.4,203 16.4,204.2 "/>
<path d="M35.9,204.2l-2.3-5.2H22.7l-2.3,5.2h-1.4l8.6-18.6h1.3l8.6,18.6H35.9z M28.1,187.1l-4.9,10.7H33L28.1,187.1z"/>
<polygon points="45.5,187 45.5,204.2 44.1,204.2 44.1,187 37.7,187 37.7,185.8 51.9,185.8 51.9,187 "/>
<path d="M69.1,204.2l-2.3-5.2H55.9l-2.3,5.2h-1.4l8.6-18.6H62l8.6,18.6H69.1z M61.4,187.1l-4.9,10.7h9.7L61.4,187.1z"/>
<polygon points="90.6,204.2 90.6,188.2 83.3,198.8 83.2,198.8 75.9,188.2 75.9,204.2 74.6,204.2 74.6,185.8 75.9,185.8 83.3,196.7 
	90.7,185.8 92,185.8 92,204.2 "/>
<path d="M107.7,187.6c-0.8,0.6-1.6,1.4-2.4,2.5l-1-0.7c0.4-0.6,0.8-1.2,1.3-1.6c0.4-0.5,0.9-0.9,1.4-1.2c0.5-0.3,1.1-0.6,1.7-0.8
	c0.6-0.2,1.4-0.3,2.2-0.3c0.8,0,1.5,0.1,2.2,0.4c0.7,0.3,1.2,0.6,1.7,1.1c0.5,0.5,0.9,1,1.1,1.6c0.3,0.6,0.4,1.3,0.4,2
	c0,0.6-0.1,1.2-0.3,1.8c-0.2,0.6-0.5,1.1-0.8,1.7c-0.4,0.6-0.9,1.1-1.4,1.7c-0.6,0.6-1.3,1.3-2.1,2l-5.6,5.1h10.5v1.3h-12.6v-1
	l6.9-6.2c0.8-0.7,1.4-1.3,1.9-1.9c0.5-0.6,0.9-1.1,1.3-1.6c0.3-0.5,0.5-1,0.7-1.4c0.1-0.5,0.2-0.9,0.2-1.4c0-0.6-0.1-1.1-0.3-1.6
	c-0.2-0.5-0.5-0.9-0.9-1.3c-0.4-0.3-0.8-0.6-1.3-0.8c-0.5-0.2-1-0.3-1.6-0.3C109.5,186.7,108.5,187,107.7,187.6"/>
<path d="M134.7,198.6c-0.4,1.2-0.9,2.2-1.5,3c-0.7,0.9-1.5,1.6-2.4,2.1c-0.9,0.5-2,0.8-3.2,0.8s-2.2-0.3-3.2-0.8
	c-0.9-0.5-1.7-1.2-2.4-2.1c-0.7-0.9-1.2-1.9-1.5-3c-0.4-1.2-0.5-2.4-0.5-3.7s0.2-2.5,0.5-3.7c0.4-1.2,0.9-2.2,1.5-3
	c0.7-0.9,1.5-1.6,2.4-2.1c0.9-0.5,2-0.8,3.2-0.8c1.2,0,2.2,0.3,3.2,0.8c0.9,0.5,1.7,1.2,2.4,2.1c0.7,0.9,1.2,1.9,1.5,3
	c0.4,1.2,0.5,2.4,0.5,3.7C135.2,196.2,135.1,197.5,134.7,198.6 M133.4,191.9c-0.3-1-0.7-1.9-1.3-2.7s-1.2-1.4-2-1.8
	c-0.8-0.5-1.6-0.7-2.6-0.7c-0.9,0-1.8,0.2-2.6,0.7s-1.4,1.1-2,1.8c-0.5,0.8-0.9,1.6-1.2,2.7c-0.3,1-0.4,2-0.4,3.1
	c0,1.1,0.1,2.1,0.4,3.1c0.3,1,0.7,1.9,1.3,2.7c0.5,0.8,1.2,1.4,2,1.8c0.8,0.5,1.6,0.7,2.6,0.7c0.9,0,1.8-0.2,2.6-0.7
	c0.8-0.5,1.4-1.1,2-1.8c0.5-0.8,0.9-1.6,1.2-2.6c0.3-1,0.4-2,0.4-3.1C133.8,193.9,133.7,192.9,133.4,191.9"/>
<path d="M141.8,187.6c-0.8,0.6-1.6,1.4-2.4,2.5l-1-0.7c0.4-0.6,0.8-1.2,1.3-1.6c0.4-0.5,0.9-0.9,1.4-1.2c0.5-0.3,1.1-0.6,1.7-0.8
	c0.6-0.2,1.4-0.3,2.2-0.3c0.8,0,1.5,0.1,2.2,0.4c0.7,0.3,1.2,0.6,1.7,1.1c0.5,0.5,0.9,1,1.1,1.6c0.3,0.6,0.4,1.3,0.4,2
	c0,0.6-0.1,1.2-0.3,1.8c-0.2,0.6-0.5,1.1-0.8,1.7c-0.4,0.6-0.9,1.1-1.4,1.7c-0.6,0.6-1.3,1.3-2.1,2l-5.6,5.1h10.5v1.3H138v-1
	l6.9-6.2c0.8-0.7,1.4-1.3,1.9-1.9c0.5-0.6,0.9-1.1,1.3-1.6c0.3-0.5,0.5-1,0.7-1.4c0.1-0.5,0.2-0.9,0.2-1.4c0-0.6-0.1-1.1-0.3-1.6
	c-0.2-0.5-0.5-0.9-0.9-1.3c-0.4-0.3-0.8-0.6-1.3-0.8c-0.5-0.2-1-0.3-1.6-0.3C143.6,186.7,142.6,187,141.8,187.6"/>
<path d="M157.3,187.6c-0.8,0.6-1.6,1.4-2.4,2.5l-1-0.7c0.4-0.6,0.8-1.2,1.3-1.6c0.4-0.5,0.9-0.9,1.4-1.2c0.5-0.3,1.1-0.6,1.7-0.8
	c0.6-0.2,1.4-0.3,2.2-0.3c0.8,0,1.5,0.1,2.2,0.4c0.7,0.3,1.2,0.6,1.7,1.1c0.5,0.5,0.9,1,1.1,1.6c0.3,0.6,0.4,1.3,0.4,2
	c0,0.6-0.1,1.2-0.3,1.8c-0.2,0.6-0.5,1.1-0.8,1.7c-0.4,0.6-0.9,1.1-1.4,1.7c-0.6,0.6-1.3,1.3-2.1,2l-5.6,5.1h10.5v1.3h-12.6v-1
	l6.9-6.2c0.8-0.7,1.4-1.3,1.9-1.9c0.5-0.6,0.9-1.1,1.3-1.6c0.3-0.5,0.5-1,0.7-1.4c0.1-0.5,0.2-0.9,0.2-1.4c0-0.6-0.1-1.1-0.3-1.6
	c-0.2-0.5-0.5-0.9-0.9-1.3c-0.4-0.3-0.8-0.6-1.3-0.8c-0.5-0.2-1-0.3-1.6-0.3C159.2,186.7,158.2,187,157.3,187.6"/>
<path class="st0" d="M58.3,13.3c0,6.7-5.4,12.1-12.1,12.1S34.2,20,34.2,13.3c0-6.7,5.4-12.1,12.1-12.1S58.3,6.6,58.3,13.3"/>
<path class="st1" d="M46.3,26.6c-7.3,0-13.3-6-13.3-13.3C33,6,38.9,0,46.3,0c7.3,0,13.3,6,13.3,13.3C59.6,20.6,53.6,26.6,46.3,26.6
	 M46.3,2.5c-6,0-10.8,4.9-10.8,10.8c0,6,4.9,10.8,10.8,10.8c6,0,10.8-4.9,10.8-10.8C57.1,7.3,52.2,2.5,46.3,2.5"/>
<path class="st0" d="M38.4,13.3c0-4.3,3.5-7.9,7.9-7.9"/>
<path class="st1" d="M38.4,14.5c-0.7,0-1.2-0.6-1.2-1.2c0-5,4.1-9.1,9.1-9.1c0.7,0,1.2,0.6,1.2,1.2c0,0.7-0.6,1.2-1.2,1.2
	c-3.7,0-6.6,3-6.6,6.6C39.6,14,39.1,14.5,38.4,14.5"/>
<path class="st2" d="M76.7,54.8c-14.5,0-26.3-11.8-26.3-26.3C50.4,14,62.2,2.2,76.7,2.2C91.2,2.2,103,14,103,28.5
	C103,43,91.2,54.8,76.7,54.8 M76.7,4.7c-13.1,0-23.8,10.7-23.8,23.8c0,13.1,10.7,23.8,23.8,23.8c13.1,0,23.8-10.7,23.8-23.8
	C100.6,15.4,89.9,4.7,76.7,4.7"/>
<path class="st0" d="M117.1,45.6c0,7.3-5.9,13.1-13.1,13.1c-7.3,0-13.1-5.9-13.1-13.1c0-7.3,5.9-13.1,13.1-13.1
	C111.2,32.4,117.1,38.3,117.1,45.6"/>
<path class="st3" d="M104,59.9c-7.9,0-14.4-6.4-14.4-14.4c0-7.9,6.4-14.4,14.4-14.4c7.9,0,14.4,6.4,14.4,14.4
	C118.3,53.5,111.9,59.9,104,59.9 M104,33.7c-6.6,0-11.9,5.3-11.9,11.9c0,6.6,5.3,11.9,11.9,11.9c6.6,0,11.9-5.3,11.9-11.9
	C115.9,39,110.5,33.7,104,33.7"/>
<path class="st0" d="M55.9,28.5c0-11.5,9.4-20.9,20.9-20.9"/>
<path class="st2" d="M55.9,29.7c-0.7,0-1.2-0.6-1.2-1.2c0-12.2,9.9-22.1,22.1-22.1C77.4,6.4,78,7,78,7.6c0,0.7-0.6,1.2-1.2,1.2
	c-10.8,0-19.6,8.8-19.6,19.6C57.1,29.2,56.6,29.7,55.9,29.7"/>
<path class="st0" d="M95,45.6c0-4.9,4-8.9,8.9-8.9"/>
<path class="st3" d="M95,46.8c-0.7,0-1.2-0.6-1.2-1.2c0-5.6,4.6-10.2,10.2-10.2c0.7,0,1.2,0.6,1.2,1.2c0,0.7-0.6,1.2-1.2,1.2
	c-4.2,0-7.7,3.5-7.7,7.7C96.3,46.3,95.7,46.8,95,46.8"/>
<path class="st0" d="M155.8,50.8c0,11.7-9.5,21.1-21.1,21.1s-21.1-9.5-21.1-21.1c0-11.7,9.5-21.1,21.1-21.1S155.8,39.1,155.8,50.8"
	/>
<path class="st4" d="M134.7,73.2c-12.3,0-22.4-10-22.4-22.4c0-12.3,10-22.4,22.4-22.4c12.3,0,22.4,10,22.4,22.4
	C157,63.1,147,73.2,134.7,73.2 M134.7,30.9c-11,0-19.9,8.9-19.9,19.9c0,11,8.9,19.9,19.9,19.9c11,0,19.9-8.9,19.9-19.9
	C154.6,39.8,145.6,30.9,134.7,30.9"/>
<path class="st0" d="M117.7,50.8c0-9.3,7.6-16.9,16.9-16.9"/>
<path class="st4" d="M117.7,52c-0.7,0-1.2-0.6-1.2-1.2c0-10,8.1-18.2,18.2-18.2c0.7,0,1.2,0.6,1.2,1.2c0,0.7-0.6,1.2-1.2,1.2
	c-8.7,0-15.7,7-15.7,15.7C119,51.5,118.4,52,117.7,52"/>
<path class="st0" d="M169.5,71.9c0,6.7-5.4,12.1-12.1,12.1c-6.7,0-12.1-5.4-12.1-12.1c0-6.7,5.4-12.1,12.1-12.1
	C164.1,59.9,169.5,65.3,169.5,71.9"/>
<path class="st5" d="M157.4,85.2c-7.3,0-13.3-6-13.3-13.3c0-7.3,6-13.3,13.3-13.3c7.3,0,13.3,6,13.3,13.3
	C170.7,79.3,164.8,85.2,157.4,85.2 M157.4,61.1c-6,0-10.8,4.9-10.8,10.8c0,6,4.9,10.8,10.8,10.8c6,0,10.8-4.9,10.8-10.8
	C168.3,65.9,163.4,61.1,157.4,61.1"/>
<path class="st0" d="M149.6,71.9c0-4.3,3.5-7.9,7.9-7.9"/>
<path class="st5" d="M149.6,73.2c-0.7,0-1.2-0.6-1.2-1.2c0-5,4.1-9.1,9.1-9.1c0.7,0,1.2,0.6,1.2,1.2c0,0.7-0.6,1.2-1.2,1.2
	c-3.7,0-6.6,3-6.6,6.6C150.8,72.6,150.2,73.2,149.6,73.2"/>
<path class="st0" d="M189,72.2c0,6.5-5.3,11.8-11.8,11.8c-6.5,0-11.8-5.3-11.8-11.8c0-6.5,5.3-11.8,11.8-11.8
	C183.8,60.5,189,65.7,189,72.2"/>
<path class="st6" d="M177.3,85.2c-7.2,0-13-5.8-13-13c0-7.2,5.8-13,13-13c7.2,0,13,5.8,13,13C190.3,79.4,184.4,85.2,177.3,85.2
	 M177.3,61.7c-5.8,0-10.5,4.7-10.5,10.5c0,5.8,4.7,10.5,10.5,10.5c5.8,0,10.5-4.7,10.5-10.5C187.8,66.4,183.1,61.7,177.3,61.7"/>
<path class="st0" d="M169.7,72.2c0-4.2,3.4-7.6,7.6-7.6"/>
<path class="st6" d="M169.7,73.5c-0.7,0-1.2-0.6-1.2-1.2c0-4.9,4-8.8,8.8-8.8c0.7,0,1.2,0.6,1.2,1.2s-0.6,1.2-1.2,1.2
	c-3.5,0-6.3,2.8-6.3,6.3C170.9,72.9,170.4,73.5,169.7,73.5"/>
<path class="st0" d="M230,89.3c0,13.7-11.1,24.7-24.7,24.7c-13.7,0-24.7-11.1-24.7-24.7c0-13.7,11.1-24.7,24.7-24.7
	C219,64.5,230,75.6,230,89.3"/>
<path class="st7" d="M205.3,115.2c-14.3,0-26-11.6-26-26c0-14.3,11.6-26,26-26c14.3,0,26,11.6,26,26
	C231.3,103.6,219.6,115.2,205.3,115.2 M205.3,65.8c-13,0-23.5,10.5-23.5,23.5c0,13,10.5,23.5,23.5,23.5c13,0,23.5-10.5,23.5-23.5
	C228.8,76.3,218.3,65.8,205.3,65.8"/>
<path class="st0" d="M184.5,89.3c0-11.5,9.3-20.8,20.8-20.8"/>
<path class="st7" d="M184.5,90.5c-0.7,0-1.2-0.6-1.2-1.2c0-12.1,9.9-22,22-22c0.7,0,1.2,0.6,1.2,1.2c0,0.7-0.6,1.2-1.2,1.2
	c-10.8,0-19.5,8.8-19.5,19.5C185.8,89.9,185.2,90.5,184.5,90.5"/>
<path class="st0" d="M250.2,136c0,17.3-14,31.3-31.3,31.3c-17.3,0-31.3-14-31.3-31.3c0-17.3,14-31.3,31.3-31.3
	C236.2,104.8,250.2,118.8,250.2,136"/>
<path class="st8" d="M218.9,168.5c-17.9,0-32.5-14.6-32.5-32.5c0-17.9,14.6-32.5,32.5-32.5c17.9,0,32.5,14.6,32.5,32.5
	C251.4,153.9,236.8,168.5,218.9,168.5 M218.9,106c-16.6,0-30,13.5-30,30s13.5,30,30,30c16.6,0,30-13.5,30-30S235.5,106,218.9,106"/>
<path class="st0" d="M267.4,104.8c0,11.7-9.5,21.1-21.1,21.1c-11.7,0-21.1-9.5-21.1-21.1c0-11.7,9.5-21.1,21.1-21.1
	C257.9,83.6,267.4,93.1,267.4,104.8"/>
<path class="st9" d="M246.2,127.1c-12.3,0-22.4-10-22.4-22.4c0-12.3,10-22.4,22.4-22.4c12.3,0,22.4,10,22.4,22.4
	C268.6,117.1,258.6,127.1,246.2,127.1 M246.2,84.9c-11,0-19.9,8.9-19.9,19.9c0,11,8.9,19.9,19.9,19.9c11,0,19.9-8.9,19.9-19.9
	C266.1,93.8,257.2,84.9,246.2,84.9"/>
<path class="st0" d="M271.6,186.3c0,17.5-14.2,31.7-31.7,31.7s-31.7-14.2-31.7-31.7c0-17.5,14.2-31.7,31.7-31.7
	S271.6,168.8,271.6,186.3"/>
<path class="st10" d="M239.8,219.3c-18.2,0-32.9-14.8-32.9-32.9c0-18.2,14.8-32.9,32.9-32.9c18.2,0,32.9,14.8,32.9,32.9
	C272.8,204.5,258,219.3,239.8,219.3 M239.8,155.8c-16.8,0-30.5,13.7-30.5,30.5c0,16.8,13.7,30.5,30.5,30.5
	c16.8,0,30.5-13.7,30.5-30.5C270.3,169.5,256.6,155.8,239.8,155.8"/>
<path class="st0" d="M317,143.4c0,21.3-17.3,38.6-38.6,38.6c-21.3,0-38.6-17.3-38.6-38.6c0-21.3,17.3-38.6,38.6-38.6
	C299.8,104.8,317,122,317,143.4"/>
<path class="st11" d="M278.4,183.2c-22,0-39.8-17.9-39.8-39.8c0-22,17.9-39.8,39.8-39.8c22,0,39.8,17.9,39.8,39.8
	C318.3,165.3,300.4,183.2,278.4,183.2 M278.4,106c-20.6,0-37.4,16.8-37.4,37.4c0,20.6,16.8,37.4,37.4,37.4
	c20.6,0,37.4-16.8,37.4-37.4C315.8,122.8,299,106,278.4,106"/>
<path class="st0" d="M246.9,229.4c0,9.3-7.5,16.8-16.8,16.8c-9.3,0-16.8-7.5-16.8-16.8c0-9.3,7.5-16.8,16.8-16.8
	C239.3,212.6,246.9,220.1,246.9,229.4"/>
<path class="st12" d="M230,247.5c-10,0-18.1-8.1-18.1-18.1c0-10,8.1-18.1,18.1-18.1c10,0,18.1,8.1,18.1,18.1
	C248.1,239.4,240,247.5,230,247.5 M230,213.8c-8.6,0-15.6,7-15.6,15.6c0,8.6,7,15.6,15.6,15.6c8.6,0,15.6-7,15.6-15.6
	C245.6,220.8,238.6,213.8,230,213.8"/>
<path class="st0" d="M191.9,136c0-14.9,12.1-27.1,27.1-27.1"/>
<path class="st8" d="M191.9,137.3c-0.7,0-1.2-0.6-1.2-1.2c0-15.6,12.7-28.3,28.3-28.3c0.7,0,1.2,0.6,1.2,1.2c0,0.7-0.6,1.2-1.2,1.2
	c-14.2,0-25.8,11.6-25.8,25.8C193.1,136.7,192.5,137.3,191.9,137.3"/>
<path class="st0" d="M229.3,104.8c0-9.3,7.6-16.9,16.9-16.9"/>
<path class="st9" d="M229.3,106c-0.7,0-1.2-0.6-1.2-1.2c0-10,8.1-18.2,18.2-18.2c0.7,0,1.2,0.6,1.2,1.2s-0.6,1.2-1.2,1.2
	c-8.7,0-15.7,7-15.7,15.7C230.5,105.4,230,106,229.3,106"/>
<path class="st0" d="M229.3,104.8c0-9.3,7.6-16.9,16.9-16.9"/>
<path class="st9" d="M229.3,106c-0.7,0-1.2-0.6-1.2-1.2c0-10,8.1-18.2,18.2-18.2c0.7,0,1.2,0.6,1.2,1.2s-0.6,1.2-1.2,1.2
	c-8.7,0-15.7,7-15.7,15.7C230.5,105.4,230,106,229.3,106"/>
<path class="st0" d="M212.3,186.3c0-15.2,12.3-27.5,27.5-27.5"/>
<path class="st10" d="M212.3,187.5c-0.7,0-1.2-0.6-1.2-1.2c0-15.8,12.9-28.7,28.7-28.7c0.7,0,1.2,0.6,1.2,1.2s-0.6,1.2-1.2,1.2
	c-14.5,0-26.3,11.8-26.3,26.3C213.6,187,213,187.5,212.3,187.5"/>
<path class="st0" d="M244,143.4c0-19,15.4-34.4,34.4-34.4"/>
<path class="st11" d="M244,144.6c-0.7,0-1.2-0.6-1.2-1.2c0-19.6,16-35.6,35.6-35.6c0.7,0,1.2,0.6,1.2,1.2s-0.6,1.2-1.2,1.2
	c-18.3,0-33.2,14.9-33.2,33.2C245.3,144,244.7,144.6,244,144.6"/>
<path class="st0" d="M217.4,229.4c0-7,5.7-12.6,12.6-12.6"/>
<path class="st12" d="M217.4,230.6c-0.7,0-1.2-0.6-1.2-1.2c0-7.7,6.2-13.9,13.9-13.9c0.7,0,1.2,0.6,1.2,1.2c0,0.7-0.6,1.2-1.2,1.2
	c-6.3,0-11.4,5.1-11.4,11.4C218.6,230.1,218.1,230.6,217.4,230.6"/>
<path class="st0" d="M247.9,254.1c0,6.7-5.4,12.1-12.1,12.1c-6.7,0-12.1-5.4-12.1-12.1c0-6.7,5.4-12.1,12.1-12.1
	C242.5,242.1,247.9,247.5,247.9,254.1"/>
<path class="st13" d="M235.8,267.4c-7.3,0-13.3-6-13.3-13.3c0-7.3,6-13.3,13.3-13.3c7.3,0,13.3,6,13.3,13.3
	C249.1,261.5,243.1,267.4,235.8,267.4 M235.8,243.3c-6,0-10.8,4.9-10.8,10.8c0,6,4.9,10.8,10.8,10.8c6,0,10.8-4.9,10.8-10.8
	C246.6,248.2,241.8,243.3,235.8,243.3"/>
<path class="st0" d="M227.9,254.1c0-4.3,3.5-7.9,7.9-7.9"/>
<path class="st13" d="M227.9,255.4c-0.7,0-1.2-0.6-1.2-1.2c0-5,4.1-9.1,9.1-9.1c0.7,0,1.2,0.6,1.2,1.2c0,0.7-0.6,1.2-1.2,1.2
	c-3.7,0-6.6,3-6.6,6.6C229.1,254.8,228.6,255.4,227.9,255.4"/>
</svg>
